<?xml version="1.0" encoding="utf-8"?>
<!DOCTYPE eagle SYSTEM "eagle.dtd">
<eagle version="9.0.1">
<drawing>
<settings>
<setting alwaysvectorfont="no"/>
<setting keepoldvectorfont="yes"/>
<setting verticaltext="up"/>
</settings>
<grid distance="0.1" unitdist="inch" unit="inch" style="lines" multiple="1" display="no" altdistance="0.01" altunitdist="inch" altunit="inch"/>
<layers>
<layer number="1" name="Top" color="4" fill="1" visible="yes" active="yes"/>
<layer number="16" name="Bottom" color="1" fill="1" visible="yes" active="yes"/>
<layer number="17" name="Pads" color="2" fill="1" visible="yes" active="yes"/>
<layer number="18" name="Vias" color="2" fill="1" visible="yes" active="yes"/>
<layer number="19" name="Unrouted" color="6" fill="1" visible="yes" active="yes"/>
<layer number="20" name="Dimension" color="15" fill="1" visible="yes" active="yes"/>
<layer number="21" name="tPlace" color="7" fill="1" visible="yes" active="yes"/>
<layer number="22" name="bPlace" color="7" fill="1" visible="yes" active="yes"/>
<layer number="23" name="tOrigins" color="15" fill="1" visible="yes" active="yes"/>
<layer number="24" name="bOrigins" color="15" fill="1" visible="yes" active="yes"/>
<layer number="25" name="tNames" color="7" fill="1" visible="yes" active="yes"/>
<layer number="26" name="bNames" color="7" fill="1" visible="yes" active="yes"/>
<layer number="27" name="tValues" color="7" fill="1" visible="yes" active="yes"/>
<layer number="28" name="bValues" color="7" fill="1" visible="yes" active="yes"/>
<layer number="29" name="tStop" color="7" fill="3" visible="no" active="yes"/>
<layer number="30" name="bStop" color="7" fill="6" visible="no" active="yes"/>
<layer number="31" name="tCream" color="7" fill="4" visible="no" active="yes"/>
<layer number="32" name="bCream" color="7" fill="5" visible="no" active="yes"/>
<layer number="33" name="tFinish" color="6" fill="3" visible="no" active="yes"/>
<layer number="34" name="bFinish" color="6" fill="6" visible="no" active="yes"/>
<layer number="35" name="tGlue" color="7" fill="4" visible="no" active="yes"/>
<layer number="36" name="bGlue" color="7" fill="5" visible="no" active="yes"/>
<layer number="37" name="tTest" color="7" fill="1" visible="no" active="yes"/>
<layer number="38" name="bTest" color="7" fill="1" visible="no" active="yes"/>
<layer number="39" name="tKeepout" color="4" fill="11" visible="yes" active="yes"/>
<layer number="40" name="bKeepout" color="1" fill="11" visible="yes" active="yes"/>
<layer number="41" name="tRestrict" color="4" fill="10" visible="yes" active="yes"/>
<layer number="42" name="bRestrict" color="1" fill="10" visible="yes" active="yes"/>
<layer number="43" name="vRestrict" color="2" fill="10" visible="yes" active="yes"/>
<layer number="44" name="Drills" color="7" fill="1" visible="no" active="yes"/>
<layer number="45" name="Holes" color="7" fill="1" visible="yes" active="yes"/>
<layer number="46" name="Milling" color="3" fill="1" visible="yes" active="yes"/>
<layer number="47" name="Measures" color="7" fill="1" visible="no" active="yes"/>
<layer number="48" name="Document" color="7" fill="1" visible="yes" active="yes"/>
<layer number="49" name="Reference" color="7" fill="1" visible="yes" active="yes"/>
<layer number="50" name="dxf" color="7" fill="1" visible="no" active="yes"/>
<layer number="51" name="tDocu" color="7" fill="1" visible="yes" active="yes"/>
<layer number="52" name="bDocu" color="7" fill="1" visible="yes" active="yes"/>
<layer number="53" name="tGND_GNDA" color="7" fill="9" visible="no" active="no"/>
<layer number="54" name="bGND_GNDA" color="1" fill="9" visible="no" active="no"/>
<layer number="56" name="wert" color="7" fill="1" visible="no" active="yes"/>
<layer number="57" name="tCAD" color="7" fill="1" visible="no" active="no"/>
<layer number="59" name="tCarbon" color="7" fill="1" visible="no" active="no"/>
<layer number="60" name="bCarbon" color="7" fill="1" visible="no" active="no"/>
<layer number="90" name="Modules" color="5" fill="1" visible="yes" active="yes"/>
<layer number="91" name="Nets" color="2" fill="1" visible="yes" active="yes"/>
<layer number="92" name="Busses" color="1" fill="1" visible="yes" active="yes"/>
<layer number="93" name="Pins" color="2" fill="1" visible="yes" active="yes"/>
<layer number="94" name="Symbols" color="4" fill="1" visible="yes" active="yes"/>
<layer number="95" name="Names" color="7" fill="1" visible="yes" active="yes"/>
<layer number="96" name="Values" color="7" fill="1" visible="yes" active="yes"/>
<layer number="97" name="Info" color="7" fill="1" visible="yes" active="yes"/>
<layer number="98" name="Guide" color="6" fill="1" visible="yes" active="yes"/>
<layer number="99" name="SpiceOrder" color="5" fill="1" visible="yes" active="yes"/>
<layer number="100" name="Muster" color="7" fill="1" visible="no" active="no"/>
<layer number="101" name="Patch_Top" color="12" fill="4" visible="no" active="yes"/>
<layer number="102" name="Vscore" color="7" fill="1" visible="no" active="yes"/>
<layer number="103" name="fp3" color="7" fill="1" visible="no" active="yes"/>
<layer number="104" name="Name" color="7" fill="1" visible="no" active="yes"/>
<layer number="105" name="Beschreib" color="9" fill="1" visible="no" active="yes"/>
<layer number="106" name="BGA-Top" color="4" fill="1" visible="no" active="yes"/>
<layer number="107" name="BD-Top" color="5" fill="1" visible="no" active="yes"/>
<layer number="108" name="fp8" color="7" fill="1" visible="no" active="yes"/>
<layer number="109" name="fp9" color="7" fill="1" visible="no" active="yes"/>
<layer number="110" name="fp0" color="7" fill="1" visible="no" active="yes"/>
<layer number="111" name="LPC17xx" color="7" fill="1" visible="no" active="yes"/>
<layer number="112" name="tSilk" color="7" fill="1" visible="no" active="yes"/>
<layer number="113" name="ReferenceLS" color="7" fill="1" visible="no" active="no"/>
<layer number="114" name="Badge_Outline" color="7" fill="1" visible="yes" active="yes"/>
<layer number="115" name="ReferenceISLANDS" color="7" fill="1" visible="yes" active="yes"/>
<layer number="116" name="Patch_BOT" color="9" fill="4" visible="no" active="yes"/>
<layer number="117" name="BACKMAAT1" color="7" fill="1" visible="no" active="no"/>
<layer number="118" name="Rect_Pads" color="7" fill="1" visible="no" active="no"/>
<layer number="119" name="KAP_TEKEN" color="7" fill="1" visible="no" active="no"/>
<layer number="120" name="KAP_MAAT1" color="7" fill="1" visible="no" active="no"/>
<layer number="121" name="_tsilk" color="7" fill="1" visible="no" active="yes"/>
<layer number="122" name="_bsilk" color="7" fill="1" visible="no" active="yes"/>
<layer number="123" name="tTestmark" color="7" fill="1" visible="no" active="yes"/>
<layer number="124" name="bTestmark" color="7" fill="1" visible="no" active="yes"/>
<layer number="125" name="_tNames" color="7" fill="1" visible="no" active="yes"/>
<layer number="126" name="_bNames" color="7" fill="1" visible="no" active="yes"/>
<layer number="127" name="_tValues" color="7" fill="1" visible="no" active="yes"/>
<layer number="128" name="_bValues" color="7" fill="1" visible="no" active="yes"/>
<layer number="129" name="Mask" color="7" fill="1" visible="yes" active="yes"/>
<layer number="130" name="SMDSTROOK" color="7" fill="1" visible="no" active="no"/>
<layer number="131" name="tAdjust" color="7" fill="1" visible="no" active="yes"/>
<layer number="132" name="bAdjust" color="7" fill="1" visible="no" active="yes"/>
<layer number="133" name="bottom_silk" color="7" fill="1" visible="no" active="no"/>
<layer number="144" name="Drill_legend" color="7" fill="1" visible="no" active="yes"/>
<layer number="145" name="DrillLegend_01-16" color="7" fill="1" visible="no" active="yes"/>
<layer number="146" name="DrillLegend_01-20" color="7" fill="1" visible="no" active="yes"/>
<layer number="150" name="Notes" color="7" fill="1" visible="no" active="yes"/>
<layer number="151" name="HeatSink" color="7" fill="1" visible="no" active="yes"/>
<layer number="152" name="_bDocu" color="7" fill="1" visible="no" active="yes"/>
<layer number="153" name="FabDoc1" color="6" fill="1" visible="no" active="no"/>
<layer number="154" name="FabDoc2" color="2" fill="1" visible="no" active="no"/>
<layer number="155" name="FabDoc3" color="7" fill="15" visible="no" active="no"/>
<layer number="199" name="Contour" color="7" fill="1" visible="no" active="yes"/>
<layer number="200" name="200bmp" color="1" fill="10" visible="no" active="yes"/>
<layer number="201" name="201bmp" color="2" fill="1" visible="no" active="no"/>
<layer number="202" name="202bmp" color="3" fill="1" visible="no" active="no"/>
<layer number="203" name="203bmp" color="4" fill="10" visible="no" active="yes"/>
<layer number="204" name="204bmp" color="5" fill="10" visible="no" active="yes"/>
<layer number="205" name="205bmp" color="6" fill="10" visible="no" active="yes"/>
<layer number="206" name="206bmp" color="7" fill="10" visible="no" active="yes"/>
<layer number="207" name="207bmp" color="8" fill="10" visible="no" active="yes"/>
<layer number="208" name="208bmp" color="9" fill="10" visible="no" active="yes"/>
<layer number="209" name="209bmp" color="7" fill="1" visible="no" active="yes"/>
<layer number="210" name="210bmp" color="7" fill="1" visible="no" active="yes"/>
<layer number="211" name="211bmp" color="7" fill="1" visible="no" active="yes"/>
<layer number="212" name="212bmp" color="7" fill="1" visible="no" active="yes"/>
<layer number="213" name="213bmp" color="7" fill="1" visible="no" active="yes"/>
<layer number="214" name="214bmp" color="7" fill="1" visible="no" active="yes"/>
<layer number="215" name="215bmp" color="7" fill="1" visible="no" active="yes"/>
<layer number="216" name="216bmp" color="7" fill="1" visible="no" active="yes"/>
<layer number="217" name="217bmp" color="18" fill="1" visible="no" active="no"/>
<layer number="218" name="218bmp" color="19" fill="1" visible="no" active="no"/>
<layer number="219" name="219bmp" color="20" fill="1" visible="no" active="no"/>
<layer number="220" name="220bmp" color="21" fill="1" visible="no" active="no"/>
<layer number="221" name="221bmp" color="22" fill="1" visible="no" active="no"/>
<layer number="222" name="222bmp" color="23" fill="1" visible="no" active="no"/>
<layer number="223" name="223bmp" color="24" fill="1" visible="no" active="no"/>
<layer number="224" name="224bmp" color="25" fill="1" visible="no" active="no"/>
<layer number="225" name="225bmp" color="7" fill="1" visible="yes" active="yes"/>
<layer number="226" name="226bmp" color="7" fill="1" visible="yes" active="yes"/>
<layer number="227" name="227bmp" color="7" fill="1" visible="yes" active="yes"/>
<layer number="228" name="228bmp" color="7" fill="1" visible="yes" active="yes"/>
<layer number="229" name="229bmp" color="7" fill="1" visible="yes" active="yes"/>
<layer number="230" name="230bmp" color="7" fill="1" visible="yes" active="yes"/>
<layer number="231" name="Eagle3D_PG1" color="7" fill="1" visible="no" active="no"/>
<layer number="232" name="Eagle3D_PG2" color="7" fill="1" visible="no" active="no"/>
<layer number="233" name="Eagle3D_PG3" color="7" fill="1" visible="no" active="no"/>
<layer number="248" name="Housing" color="7" fill="1" visible="no" active="yes"/>
<layer number="249" name="Edge" color="7" fill="1" visible="no" active="yes"/>
<layer number="250" name="Descript" color="7" fill="1" visible="no" active="no"/>
<layer number="251" name="SMDround" color="7" fill="1" visible="no" active="no"/>
<layer number="254" name="cooling" color="7" fill="1" visible="no" active="yes"/>
<layer number="255" name="routoute" color="7" fill="1" visible="yes" active="yes"/>
</layers>
<library>
<packages>
<package name="SOT23">
<description>&lt;b&gt;SOT-23&lt;/b&gt;</description>
<wire x1="1.4224" y1="0.6604" x2="1.4224" y2="-0.6604" width="0.1524" layer="51"/>
<wire x1="1.4224" y1="-0.6604" x2="-1.4224" y2="-0.6604" width="0.1524" layer="51"/>
<wire x1="-1.4224" y1="-0.6604" x2="-1.4224" y2="0.6604" width="0.1524" layer="51"/>
<wire x1="-1.4224" y1="0.6604" x2="1.4224" y2="0.6604" width="0.1524" layer="51"/>
<wire x1="-1.4224" y1="-0.1854" x2="-1.4224" y2="0.6604" width="0.1524" layer="21"/>
<wire x1="-1.4224" y1="0.6604" x2="-0.6576" y2="0.6604" width="0.1524" layer="21"/>
<wire x1="1.4224" y1="0.6604" x2="1.4224" y2="-0.1854" width="0.1524" layer="21"/>
<wire x1="0.6326" y1="0.6604" x2="1.4224" y2="0.6604" width="0.1524" layer="21"/>
<smd name="3" x="0" y="1.1" dx="1" dy="1.4" layer="1"/>
<smd name="2" x="0.95" y="-1.1" dx="1" dy="1.4" layer="1"/>
<smd name="1" x="-0.95" y="-1.1" dx="1" dy="1.4" layer="1"/>
<text x="-1.905" y="1.905" size="1.27" layer="25">&gt;NAME</text>
<text x="-1.905" y="-3.175" size="1.27" layer="27">&gt;VALUE</text>
<rectangle x1="-0.2286" y1="0.7112" x2="0.2286" y2="1.2954" layer="51"/>
<rectangle x1="0.7112" y1="-1.2954" x2="1.1684" y2="-0.7112" layer="51"/>
<rectangle x1="-1.1684" y1="-1.2954" x2="-0.7112" y2="-0.7112" layer="51"/>
<circle x="-2.032" y="-1.27" radius="0.254" width="0" layer="21"/>
</package>
<package name="SMT0603">
<description>&lt;b&gt;Hyper CHIPLED Hyper-Bright LED&lt;/b&gt;&lt;p&gt;
LB Q993&lt;br&gt;
Source: http://www.osram.convergy.de/ ... Lb_q993.pdf</description>
<wire x1="4.006" y1="2.178" x2="3.106" y2="2.178" width="0.1016" layer="51"/>
<wire x1="4.006" y1="1.378" x2="3.106" y2="1.378" width="0.1016" layer="51"/>
<smd name="C" x="4.306" y="1.778" dx="0.8" dy="0.8" layer="1" rot="R270"/>
<smd name="A" x="2.806" y="1.778" dx="0.8" dy="0.8" layer="1" rot="R270"/>
<text x="8.001" y="3.937" size="1.27" layer="25" rot="R180">&gt;NAME</text>
<text x="1.905" y="-0.127" size="1.27" layer="27">&gt;VALUE</text>
<rectangle x1="3.756" y1="1.578" x2="4.656" y2="1.978" layer="51" rot="R270"/>
<rectangle x1="2.456" y1="1.578" x2="3.356" y2="1.978" layer="51" rot="R270"/>
<rectangle x1="3.631" y1="2.003" x2="3.781" y2="2.303" layer="21" rot="R270"/>
<rectangle x1="3.631" y1="1.253" x2="3.781" y2="1.553" layer="21" rot="R270"/>
<rectangle x1="3.556" y1="1.628" x2="3.856" y2="1.928" layer="21" rot="R270"/>
</package>
<package name="SX1276_LORA_MODULE">
<pad name="1" x="0" y="0" drill="0.8" shape="square"/>
<pad name="2" x="0" y="-2.54" drill="0.8"/>
<pad name="3" x="0" y="-5.08" drill="0.8"/>
<pad name="4" x="0" y="-7.62" drill="0.8"/>
<pad name="5" x="0" y="-10.16" drill="0.8"/>
<pad name="6" x="0" y="-12.7" drill="0.8"/>
<pad name="7" x="0" y="-15.24" drill="0.8"/>
<pad name="8" x="22.86" y="-15.24" drill="0.8"/>
<pad name="9" x="22.86" y="-12.7" drill="0.8"/>
<pad name="10" x="22.86" y="-10.16" drill="0.8"/>
<pad name="11" x="22.86" y="-7.62" drill="0.8"/>
<pad name="12" x="22.86" y="-5.08" drill="0.8"/>
<pad name="13" x="22.86" y="-2.54" drill="0.8"/>
<pad name="14" x="22.86" y="0" drill="0.8"/>
<wire x1="-2.22" y1="7.75" x2="25.08" y2="7.75" width="0.127" layer="21"/>
<wire x1="-2.22" y1="-16.76" x2="25.08" y2="-16.76" width="0.127" layer="21"/>
<wire x1="-2.22" y1="-16.76" x2="-2.22" y2="7.75" width="0.127" layer="21"/>
<wire x1="25.08" y1="7.75" x2="25.08" y2="-16.76" width="0.127" layer="21"/>
<text x="1.5" y="-0.7" size="1.27" layer="21">1</text>
<text x="1.5" y="-15.9" size="1.27" layer="21">7</text>
<text x="20.7" y="-16" size="1.27" layer="21">8</text>
<text x="19.8" y="-0.8" size="1.27" layer="21">14</text>
<text x="-1.57" y="8.09" size="1.27" layer="21">&gt;NAME</text>
<text x="0.81" y="-18.55" size="1.27" layer="21">&gt;VALUE</text>
</package>
<package name="1MM_PIN_HEADER">
<pad name="1" x="0" y="0" drill="0.5" diameter="0.8" shape="square"/>
<pad name="2" x="1" y="0" drill="0.5" diameter="0.8"/>
<pad name="3" x="2" y="0" drill="0.5" diameter="0.8"/>
<text x="-1.1" y="0.7" size="1.016" layer="25">&gt;NAME</text>
<text x="-1.1" y="-1.7" size="1.016" layer="27">&gt;VALUE</text>
<wire x1="-1" y1="-0.5" x2="3" y2="-0.5" width="0.127" layer="21"/>
<wire x1="3" y1="-0.5" x2="3" y2="0.5" width="0.127" layer="21"/>
<wire x1="3" y1="0.5" x2="-1" y2="0.5" width="0.127" layer="21"/>
<wire x1="-1" y1="0.5" x2="-1" y2="-0.5" width="0.127" layer="21"/>
</package>
<package name="ESOP-8">
<smd name="1" x="-1.9" y="-2.91" dx="1.3" dy="0.48" layer="1" rot="R90"/>
<smd name="2" x="-0.63" y="-2.91" dx="1.3" dy="0.48" layer="1" rot="R90"/>
<smd name="3" x="0.64" y="-2.91" dx="1.3" dy="0.48" layer="1" rot="R90"/>
<smd name="4" x="1.91" y="-2.91" dx="1.3" dy="0.48" layer="1" rot="R90"/>
<smd name="5" x="1.91" y="2.91" dx="1.3" dy="0.48" layer="1" rot="R90"/>
<smd name="6" x="0.64" y="2.91" dx="1.3" dy="0.48" layer="1" rot="R90"/>
<smd name="7" x="-0.63" y="2.91" dx="1.3" dy="0.48" layer="1" rot="R90"/>
<smd name="8" x="-1.9" y="2.91" dx="1.3" dy="0.48" layer="1" rot="R90"/>
<wire x1="-2.55" y1="-2.05" x2="2.55" y2="-2.05" width="0.127" layer="21"/>
<wire x1="-2.55" y1="2.05" x2="2.55" y2="2.05" width="0.127" layer="21"/>
<wire x1="-2.55" y1="-2.05" x2="-2.55" y2="-0.35" width="0.127" layer="21"/>
<wire x1="-2.55" y1="-0.35" x2="-2.55" y2="0.35" width="0.127" layer="21"/>
<wire x1="-2.55" y1="0.35" x2="-2.55" y2="2.05" width="0.127" layer="21"/>
<wire x1="2.55" y1="-2.05" x2="2.55" y2="2.05" width="0.127" layer="21"/>
<wire x1="-2.55" y1="0.35" x2="-2.55" y2="-0.35" width="0.127" layer="21" curve="-180"/>
<text x="-3.175" y="-2.54" size="1.27" layer="25" rot="R90">&gt;NAME</text>
<text x="4.445" y="-2.54" size="1.27" layer="27" rot="R90">&gt;VALUE</text>
<smd name="0" x="0" y="0" dx="3.3" dy="2.4" layer="1"/>
</package>
<package name="DO-214AB">
<smd name="1" x="-3.305" y="0" dx="1.52" dy="3.2" layer="1"/>
<smd name="2" x="3.305" y="0" dx="1.52" dy="3.2" layer="1"/>
<wire x1="-3.3" y1="3.175" x2="3.3" y2="3.175" width="0.127" layer="21"/>
<wire x1="-3.3" y1="-3.175" x2="3.3" y2="-3.175" width="0.127" layer="21"/>
<wire x1="3.3" y1="-3.11" x2="3.3" y2="-1.85" width="0.127" layer="21"/>
<wire x1="3.3" y1="1.9" x2="3.3" y2="3.175" width="0.127" layer="21"/>
<wire x1="-3.3" y1="-3.11" x2="-3.3" y2="-1.85" width="0.127" layer="21"/>
<wire x1="-3.3" y1="1.9" x2="-3.3" y2="3.175" width="0.127" layer="21"/>
<wire x1="2.1" y1="1.27" x2="2.1" y2="-1.27" width="0.127" layer="21"/>
</package>
<package name="WHC0603">
<smd name="1" x="0" y="0" dx="3.2" dy="3.5" layer="1"/>
<wire x1="0" y1="3.55" x2="7.6" y2="3.55" width="0.127" layer="21"/>
<smd name="2" x="7.6" y="0" dx="3.2" dy="3.5" layer="1"/>
<wire x1="0" y1="-3.55" x2="7.6" y2="-3.55" width="0.127" layer="21"/>
<wire x1="0" y1="3.55" x2="0" y2="1.9" width="0.127" layer="21"/>
<wire x1="0" y1="-1.9" x2="0" y2="-3.55" width="0.127" layer="21"/>
<wire x1="7.62" y1="3.55" x2="7.62" y2="1.9" width="0.127" layer="21"/>
<wire x1="7.62" y1="-1.99" x2="7.62" y2="-3.55" width="0.127" layer="21"/>
<text x="0" y="3.81" size="1.27" layer="25">&gt;NAME</text>
<text x="1.27" y="-5.08" size="1.27" layer="27">&gt;VALUE</text>
</package>
<package name="DO-214AC_SMA">
<smd name="1" x="-2.54" y="0" dx="2" dy="2.1" layer="1"/>
<wire x1="-2.3" y1="-1.5" x2="-2.3" y2="-1.2" width="0.127" layer="21"/>
<wire x1="-2.3" y1="-1.5" x2="2.3" y2="-1.5" width="0.127" layer="21"/>
<wire x1="-2.3" y1="1.5" x2="2.3" y2="1.5" width="0.127" layer="21"/>
<wire x1="-2.3" y1="1.2" x2="-2.3" y2="1.5" width="0.127" layer="21"/>
<smd name="2" x="2.54" y="0" dx="2" dy="2.1" layer="1"/>
<wire x1="2.3" y1="1.2" x2="2.3" y2="1.5" width="0.127" layer="21"/>
<wire x1="2.3" y1="-1.5" x2="2.3" y2="-1.2" width="0.127" layer="21"/>
<wire x1="-0.635" y1="0.635" x2="-0.635" y2="0" width="0.127" layer="21"/>
<wire x1="-0.635" y1="0" x2="-0.635" y2="-0.635" width="0.127" layer="21"/>
<wire x1="-0.635" y1="0.635" x2="0" y2="0" width="0.127" layer="21"/>
<wire x1="0" y1="0" x2="-0.635" y2="-0.635" width="0.127" layer="21"/>
<wire x1="0" y1="0.635" x2="0" y2="0" width="0.127" layer="21"/>
<wire x1="0" y1="0" x2="0" y2="-0.635" width="0.127" layer="21"/>
<wire x1="0" y1="0" x2="1.27" y2="0" width="0.127" layer="21"/>
<wire x1="-0.635" y1="0" x2="-1.27" y2="0" width="0.127" layer="21"/>
<text x="-3.175" y="1.905" size="1.27" layer="25">&gt;NAME</text>
<text x="-2.54" y="-3.175" size="1.27" layer="27">&gt;VALUE</text>
</package>
<package name="SOT-23-3">
<wire x1="1.4224" y1="0.6604" x2="1.4224" y2="-0.6604" width="0.1524" layer="51"/>
<wire x1="1.4224" y1="-0.6604" x2="-1.4224" y2="-0.6604" width="0.1524" layer="51"/>
<wire x1="-1.4224" y1="-0.6604" x2="-1.4224" y2="0.6604" width="0.1524" layer="51"/>
<wire x1="-1.4224" y1="0.6604" x2="1.4224" y2="0.6604" width="0.1524" layer="51"/>
<wire x1="-1.4224" y1="-0.1854" x2="-1.4224" y2="0.6604" width="0.1524" layer="21"/>
<wire x1="-1.4224" y1="0.6604" x2="-0.6576" y2="0.6604" width="0.1524" layer="21"/>
<wire x1="1.4224" y1="0.6604" x2="1.4224" y2="-0.1854" width="0.1524" layer="21"/>
<wire x1="0.6326" y1="0.6604" x2="1.4224" y2="0.6604" width="0.1524" layer="21"/>
<smd name="3" x="0" y="1.1" dx="1" dy="1.4" layer="1"/>
<smd name="2" x="0.95" y="-1.1" dx="1" dy="1.4" layer="1"/>
<smd name="1" x="-0.95" y="-1.1" dx="1" dy="1.4" layer="1"/>
<text x="-1.905" y="1.905" size="1.27" layer="25">&gt;NAME</text>
<text x="-1.905" y="-3.175" size="1.27" layer="27">&gt;VALUE</text>
<rectangle x1="-0.2286" y1="0.7112" x2="0.2286" y2="1.2954" layer="51"/>
<rectangle x1="0.7112" y1="-1.2954" x2="1.1684" y2="-0.7112" layer="51"/>
<rectangle x1="-1.1684" y1="-1.2954" x2="-0.7112" y2="-0.7112" layer="51"/>
<circle x="-2.032" y="-1.27" radius="0.254" width="0" layer="21"/>
</package>
<package name="0805">
<wire x1="-0.925" y1="0.6" x2="0.925" y2="0.6" width="0.1016" layer="51"/>
<wire x1="0.925" y1="-0.6" x2="-0.925" y2="-0.6" width="0.1016" layer="51"/>
<wire x1="-2" y1="1" x2="2" y2="1" width="0.05" layer="39"/>
<wire x1="2" y1="1" x2="2" y2="-1" width="0.05" layer="39"/>
<wire x1="2" y1="-1" x2="-2" y2="-1" width="0.05" layer="39"/>
<wire x1="-2" y1="-1" x2="-2" y2="1" width="0.05" layer="39"/>
<smd name="1" x="-1" y="0" dx="1.1" dy="1.4" layer="1"/>
<smd name="2" x="1" y="0" dx="1.1" dy="1.4" layer="1"/>
<text x="-1" y="0.875" size="1.016" layer="25">&gt;NAME</text>
<text x="-1" y="-1.9" size="1.016" layer="27">&gt;VALUE</text>
<rectangle x1="-1" y1="-0.65" x2="-0.5" y2="0.65" layer="51"/>
<rectangle x1="0.5" y1="-0.65" x2="1" y2="0.65" layer="51"/>
</package>
<package name="SOT-25">
<smd name="P$1" x="-0.94" y="-1.19" dx="0.7" dy="1" layer="1"/>
<smd name="P$2" x="0" y="-1.19" dx="0.7" dy="1" layer="1"/>
<smd name="P$3" x="0.94" y="-1.19" dx="0.7" dy="1" layer="1"/>
<smd name="P$4" x="0.94" y="1.19" dx="0.7" dy="1" layer="1"/>
<smd name="P$5" x="-0.94" y="1.19" dx="0.7" dy="1" layer="1"/>
<wire x1="-1.4" y1="1.3" x2="-1.5" y2="1.2" width="0.127" layer="21"/>
<wire x1="-1.5" y1="1.2" x2="-1.5" y2="-1.2" width="0.127" layer="21"/>
<wire x1="-1.5" y1="-1.2" x2="-1.4" y2="-1.3" width="0.127" layer="21"/>
<wire x1="1.4" y1="1.3" x2="1.5" y2="1.2" width="0.127" layer="21"/>
<wire x1="1.5" y1="1.2" x2="1.5" y2="-1.2" width="0.127" layer="21"/>
<wire x1="1.5" y1="-1.2" x2="1.4" y2="-1.3" width="0.127" layer="21"/>
<circle x="-1.6" y="-1.5" radius="0.1" width="0.127" layer="21"/>
<text x="-1.6" y="2" size="0.6096" layer="25">&gt;NAME</text>
<text x="-1.1" y="-2.5" size="0.6096" layer="27">&gt;VALUE</text>
</package>
<package name="4PIN_SMD_SWITCH">
<smd name="1" x="-2.375" y="0.85" dx="2.25" dy="1.2" layer="1"/>
<smd name="2" x="-2.375" y="-0.85" dx="2.25" dy="1.2" layer="1"/>
<smd name="3" x="2.375" y="-0.85" dx="2.25" dy="1.2" layer="1"/>
<smd name="4" x="2.375" y="0.85" dx="2.25" dy="1.2" layer="1"/>
<hole x="0" y="-1.375" drill="0.375"/>
<hole x="0" y="1.375" drill="0.375"/>
<wire x1="-2.35" y1="1.75" x2="2.35" y2="1.75" width="0.127" layer="21"/>
<wire x1="-2.35" y1="-1.75" x2="2.35" y2="-1.75" width="0.127" layer="21"/>
<wire x1="-1.3" y1="-2.72" x2="-1.3" y2="-1.76" width="0.127" layer="21"/>
<wire x1="-1.3" y1="-2.75" x2="1.3" y2="-2.75" width="0.127" layer="21"/>
<circle x="-3" y="2.1" radius="0.1" width="0.4064" layer="21"/>
<wire x1="1.3" y1="-2.72" x2="1.3" y2="-1.76" width="0.127" layer="21"/>
</package>
<package name="33X4X2_2PIN_SWITCH">
<smd name="1" x="-2.2" y="0" dx="1" dy="2" layer="1"/>
<smd name="2" x="2.2" y="0" dx="1" dy="2" layer="1"/>
<wire x1="-2" y1="1.47" x2="2" y2="1.47" width="0.127" layer="21"/>
<wire x1="-2.01" y1="1.46" x2="-2.01" y2="1.2" width="0.127" layer="21"/>
<wire x1="-2.075" y1="-1.2" x2="-2.075" y2="-1.5" width="0.127" layer="21"/>
<wire x1="2" y1="1.47" x2="2" y2="1.21" width="0.127" layer="21"/>
<wire x1="-2.08" y1="-1.51" x2="1.92" y2="-1.51" width="0.127" layer="21"/>
<wire x1="1.925" y1="-1.2" x2="1.925" y2="-1.5" width="0.127" layer="21"/>
<text x="-2.8" y="1.8" size="1.27" layer="25">&gt;NAME</text>
<text x="-2.9" y="-3.2" size="1.27" layer="27">&gt;VALUE</text>
</package>
<package name="CPOL-RADIAL-100UF-25V">
<wire x1="-1.905" y1="2.54" x2="-3.175" y2="2.54" width="0.2032" layer="21"/>
<circle x="0" y="0" radius="4.0132" width="0.2032" layer="21"/>
<pad name="-" x="-1.747265625" y="0" drill="1.143" diameter="2.286"/>
<pad name="+" x="1.747265625" y="0" drill="1.143" diameter="2.286" shape="square"/>
<text x="0" y="-5.207" size="0.6096" layer="27" font="vector" ratio="20" align="top-center">&gt;Value</text>
<text x="0" y="5.207" size="0.6096" layer="25" font="vector" ratio="20" align="bottom-center">&gt;Name</text>
<wire x1="3.175" y1="2.54" x2="1.905" y2="2.54" width="0.2032" layer="21"/>
<wire x1="2.54" y1="3.175" x2="2.54" y2="1.905" width="0.2032" layer="21"/>
</package>
<package name="HSMF-C118">
<smd name="P$1" x="-1.75" y="0.7" dx="1.5" dy="1" layer="1"/>
<smd name="P$2" x="-1.75" y="-0.7" dx="1.5" dy="1" layer="1"/>
<smd name="P$3" x="1.75" y="-0.7" dx="1.5" dy="1" layer="1"/>
<smd name="P$4" x="1.75" y="0.7" dx="1.5" dy="1" layer="1"/>
<text x="-2.5" y="1.6" size="0.8128" layer="25">&gt;NAME</text>
<text x="-2.3" y="-2.3" size="0.8128" layer="27">&gt;VALUE</text>
<circle x="-2.9" y="1" radius="0.1" width="0.2" layer="22"/>
</package>
<package name="10POS_2.54MM_TERMINAL-BLOCK">
<pad name="1" x="-1.27" y="0" drill="1.016" shape="square"/>
<pad name="2" x="1.27" y="0" drill="1.016" shape="square"/>
<wire x1="-2.77" y1="3.25" x2="23.05" y2="3.25" width="0.2032" layer="21"/>
<wire x1="23.05" y1="3.25" x2="23.05" y2="2.5" width="0.2032" layer="21"/>
<wire x1="23.05" y1="2.5" x2="23.05" y2="-3.25" width="0.2032" layer="21"/>
<wire x1="23.05" y1="-3.25" x2="-2.77" y2="-3.25" width="0.2032" layer="21"/>
<wire x1="-2.77" y1="-3.25" x2="-2.77" y2="2.5" width="0.2032" layer="21"/>
<wire x1="-2.77" y1="2.5" x2="-2.77" y2="3.25" width="0.2032" layer="21"/>
<wire x1="-2.77" y1="2.5" x2="23.05" y2="2.5" width="0.2032" layer="21"/>
<text x="-2.54" y="3.429" size="0.6096" layer="25" font="vector" ratio="20">&gt;NAME</text>
<text x="-2.54" y="-4.064" size="0.6096" layer="27" font="vector" ratio="20">&gt;VALUE</text>
<pad name="3" x="3.81" y="0" drill="1.016" shape="square"/>
<pad name="4" x="6.35" y="0" drill="1.016" shape="square"/>
<pad name="5" x="8.89" y="0" drill="1.016" shape="square"/>
<pad name="6" x="11.43" y="0" drill="1.016" shape="square"/>
<pad name="7" x="13.97" y="0" drill="1.016" shape="square"/>
<pad name="8" x="16.51" y="0" drill="1.016" shape="square"/>
<pad name="9" x="19.05" y="0" drill="1.016" shape="square"/>
<pad name="10" x="21.59" y="0" drill="1.016" shape="square"/>
</package>
<package name="5PCS_2.54MM_TERMINAL-BLOCK">
<pad name="1" x="0" y="0" drill="1.016" shape="square"/>
<pad name="2" x="2.54" y="0" drill="1.016" shape="square"/>
<wire x1="-1.5" y1="3.25" x2="11.62" y2="3.25" width="0.2032" layer="21"/>
<wire x1="11.62" y1="3.25" x2="11.62" y2="2.5" width="0.2032" layer="21"/>
<wire x1="11.62" y1="2.5" x2="11.62" y2="-3.25" width="0.2032" layer="21"/>
<wire x1="11.62" y1="-3.25" x2="-1.5" y2="-3.25" width="0.2032" layer="21"/>
<wire x1="-1.5" y1="-3.25" x2="-1.5" y2="2.5" width="0.2032" layer="21"/>
<wire x1="-1.5" y1="2.5" x2="-1.5" y2="3.25" width="0.2032" layer="21"/>
<wire x1="-1.5" y1="2.5" x2="11.62" y2="2.5" width="0.2032" layer="21"/>
<text x="-1.27" y="3.429" size="0.6096" layer="25" font="vector" ratio="20">&gt;NAME</text>
<text x="-1.27" y="-4.064" size="0.6096" layer="27" font="vector" ratio="20">&gt;VALUE</text>
<pad name="3" x="5.08" y="0" drill="1.016" shape="square"/>
<pad name="4" x="7.62" y="0" drill="1.016" shape="square"/>
<pad name="5" x="10.16" y="0" drill="1.016" shape="square"/>
</package>
<package name="2X20_2.54_MALE_HEADER(HOUSING)">
<wire x1="-29.165" y1="-4.5" x2="29.205" y2="-4.5" width="0.1524" layer="21"/>
<wire x1="-29.23" y1="-4.405" x2="-29.23" y2="4.475" width="0.1524" layer="21"/>
<wire x1="-29.2" y1="4.5" x2="29.205" y2="4.5" width="0.1524" layer="21"/>
<pad name="1" x="-24.13" y="-1.27" drill="1.016" shape="square"/>
<pad name="2" x="-24.13" y="1.27" drill="1.016" shape="octagon"/>
<pad name="3" x="-21.59" y="-1.27" drill="1.016" shape="octagon"/>
<pad name="4" x="-21.59" y="1.27" drill="1.016" shape="octagon"/>
<pad name="5" x="-19.05" y="-1.27" drill="1.016" shape="octagon"/>
<pad name="6" x="-19.05" y="1.27" drill="1.016" shape="octagon"/>
<pad name="7" x="-16.51" y="-1.27" drill="1.016" shape="octagon"/>
<pad name="8" x="-16.51" y="1.27" drill="1.016" shape="octagon"/>
<pad name="9" x="-13.97" y="-1.27" drill="1.016" shape="octagon"/>
<pad name="10" x="-13.97" y="1.27" drill="1.016" shape="octagon"/>
<pad name="11" x="-11.43" y="-1.27" drill="1.016" shape="octagon"/>
<pad name="12" x="-11.43" y="1.27" drill="1.016" shape="octagon"/>
<pad name="13" x="-8.89" y="-1.27" drill="1.016" shape="octagon"/>
<pad name="14" x="-8.89" y="1.27" drill="1.016" shape="octagon"/>
<pad name="15" x="-6.35" y="-1.27" drill="1.016" shape="octagon"/>
<pad name="16" x="-6.35" y="1.27" drill="1.016" shape="octagon"/>
<pad name="17" x="-3.81" y="-1.27" drill="1.016" shape="octagon"/>
<pad name="18" x="-3.81" y="1.27" drill="1.016" shape="octagon"/>
<pad name="19" x="-1.27" y="-1.27" drill="1.016" shape="octagon"/>
<pad name="20" x="-1.27" y="1.27" drill="1.016" shape="octagon"/>
<pad name="21" x="1.27" y="-1.27" drill="1.016" shape="octagon"/>
<pad name="22" x="1.27" y="1.27" drill="1.016" shape="octagon"/>
<pad name="23" x="3.81" y="-1.27" drill="1.016" shape="octagon"/>
<pad name="24" x="3.81" y="1.27" drill="1.016" shape="octagon"/>
<pad name="25" x="6.35" y="-1.27" drill="1.016" shape="octagon"/>
<pad name="26" x="6.35" y="1.27" drill="1.016" shape="octagon"/>
<pad name="27" x="8.89" y="-1.27" drill="1.016" shape="octagon"/>
<pad name="28" x="8.89" y="1.27" drill="1.016" shape="octagon"/>
<pad name="29" x="11.43" y="-1.27" drill="1.016" shape="octagon"/>
<pad name="30" x="11.43" y="1.27" drill="1.016" shape="octagon"/>
<pad name="31" x="13.97" y="-1.27" drill="1.016" shape="octagon"/>
<pad name="32" x="13.97" y="1.27" drill="1.016" shape="octagon"/>
<pad name="33" x="16.51" y="-1.27" drill="1.016" shape="octagon"/>
<pad name="34" x="16.51" y="1.27" drill="1.016" shape="octagon"/>
<pad name="35" x="19.05" y="-1.27" drill="1.016" shape="octagon"/>
<pad name="36" x="19.05" y="1.27" drill="1.016" shape="octagon"/>
<pad name="37" x="21.59" y="-1.27" drill="1.016" shape="octagon"/>
<pad name="38" x="21.59" y="1.27" drill="1.016" shape="octagon"/>
<pad name="39" x="24.13" y="-1.27" drill="1.016" shape="octagon"/>
<pad name="40" x="24.13" y="1.27" drill="1.016" shape="octagon"/>
<text x="-29.21" y="5.08" size="1.27" layer="25" ratio="10">&gt;NAME</text>
<text x="-28.575" y="-6.35" size="1.27" layer="27">&gt;VALUE</text>
<rectangle x1="-24.384" y1="-1.524" x2="-23.876" y2="-1.016" layer="51"/>
<rectangle x1="-24.384" y1="1.016" x2="-23.876" y2="1.524" layer="51"/>
<rectangle x1="-21.844" y1="1.016" x2="-21.336" y2="1.524" layer="51"/>
<rectangle x1="-21.844" y1="-1.524" x2="-21.336" y2="-1.016" layer="51"/>
<rectangle x1="-19.304" y1="1.016" x2="-18.796" y2="1.524" layer="51"/>
<rectangle x1="-19.304" y1="-1.524" x2="-18.796" y2="-1.016" layer="51"/>
<rectangle x1="-16.764" y1="1.016" x2="-16.256" y2="1.524" layer="51"/>
<rectangle x1="-14.224" y1="1.016" x2="-13.716" y2="1.524" layer="51"/>
<rectangle x1="-11.684" y1="1.016" x2="-11.176" y2="1.524" layer="51"/>
<rectangle x1="-16.764" y1="-1.524" x2="-16.256" y2="-1.016" layer="51"/>
<rectangle x1="-14.224" y1="-1.524" x2="-13.716" y2="-1.016" layer="51"/>
<rectangle x1="-11.684" y1="-1.524" x2="-11.176" y2="-1.016" layer="51"/>
<rectangle x1="-9.144" y1="1.016" x2="-8.636" y2="1.524" layer="51"/>
<rectangle x1="-9.144" y1="-1.524" x2="-8.636" y2="-1.016" layer="51"/>
<rectangle x1="-6.604" y1="1.016" x2="-6.096" y2="1.524" layer="51"/>
<rectangle x1="-6.604" y1="-1.524" x2="-6.096" y2="-1.016" layer="51"/>
<rectangle x1="-4.064" y1="1.016" x2="-3.556" y2="1.524" layer="51"/>
<rectangle x1="-4.064" y1="-1.524" x2="-3.556" y2="-1.016" layer="51"/>
<rectangle x1="-1.524" y1="1.016" x2="-1.016" y2="1.524" layer="51"/>
<rectangle x1="-1.524" y1="-1.524" x2="-1.016" y2="-1.016" layer="51"/>
<rectangle x1="1.016" y1="1.016" x2="1.524" y2="1.524" layer="51"/>
<rectangle x1="1.016" y1="-1.524" x2="1.524" y2="-1.016" layer="51"/>
<rectangle x1="3.556" y1="1.016" x2="4.064" y2="1.524" layer="51"/>
<rectangle x1="3.556" y1="-1.524" x2="4.064" y2="-1.016" layer="51"/>
<rectangle x1="6.096" y1="1.016" x2="6.604" y2="1.524" layer="51"/>
<rectangle x1="6.096" y1="-1.524" x2="6.604" y2="-1.016" layer="51"/>
<rectangle x1="8.636" y1="1.016" x2="9.144" y2="1.524" layer="51"/>
<rectangle x1="8.636" y1="-1.524" x2="9.144" y2="-1.016" layer="51"/>
<rectangle x1="11.176" y1="1.016" x2="11.684" y2="1.524" layer="51"/>
<rectangle x1="11.176" y1="-1.524" x2="11.684" y2="-1.016" layer="51"/>
<rectangle x1="13.716" y1="1.016" x2="14.224" y2="1.524" layer="51"/>
<rectangle x1="13.716" y1="-1.524" x2="14.224" y2="-1.016" layer="51"/>
<rectangle x1="16.256" y1="1.016" x2="16.764" y2="1.524" layer="51"/>
<rectangle x1="16.256" y1="-1.524" x2="16.764" y2="-1.016" layer="51"/>
<rectangle x1="18.796" y1="1.016" x2="19.304" y2="1.524" layer="51"/>
<rectangle x1="18.796" y1="-1.524" x2="19.304" y2="-1.016" layer="51"/>
<rectangle x1="21.336" y1="1.016" x2="21.844" y2="1.524" layer="51"/>
<rectangle x1="21.336" y1="-1.524" x2="21.844" y2="-1.016" layer="51"/>
<rectangle x1="23.876" y1="1.016" x2="24.384" y2="1.524" layer="51"/>
<rectangle x1="23.876" y1="-1.524" x2="24.384" y2="-1.016" layer="51"/>
<wire x1="29.23" y1="-4.44" x2="29.23" y2="4.47" width="0.1524" layer="21"/>
</package>
<package name="2PCS_2.54MM_TERMINA-BLOCK">
<pad name="1" x="-1.27" y="0" drill="1.016" shape="square"/>
<pad name="2" x="1.27" y="0" drill="1.016" shape="square"/>
<wire x1="-2.77" y1="3.25" x2="2.73" y2="3.25" width="0.2032" layer="21"/>
<wire x1="2.73" y1="3.25" x2="2.73" y2="2.5" width="0.2032" layer="21"/>
<wire x1="2.73" y1="2.5" x2="2.73" y2="-3.25" width="0.2032" layer="21"/>
<wire x1="2.73" y1="-3.25" x2="-2.77" y2="-3.25" width="0.2032" layer="21"/>
<wire x1="-2.77" y1="-3.25" x2="-2.77" y2="2.5" width="0.2032" layer="21"/>
<wire x1="-2.77" y1="2.5" x2="-2.77" y2="3.25" width="0.2032" layer="21"/>
<wire x1="-2.77" y1="2.5" x2="2.73" y2="2.5" width="0.2032" layer="21"/>
<text x="-2.54" y="3.429" size="0.6096" layer="25" font="vector" ratio="20">&gt;NAME</text>
<text x="-2.54" y="-4.064" size="0.6096" layer="27" font="vector" ratio="20">&gt;VALUE</text>
</package>
<package name="3PCS_2.54MM_TERMINAL-BLOCK">
<pad name="1" x="0" y="0" drill="1.016" shape="square"/>
<pad name="2" x="2.54" y="0" drill="1.016" shape="square"/>
<wire x1="-1.5" y1="3.25" x2="6.54" y2="3.25" width="0.2032" layer="21"/>
<wire x1="6.54" y1="3.25" x2="6.54" y2="2.5" width="0.2032" layer="21"/>
<wire x1="6.54" y1="2.5" x2="6.54" y2="-3.25" width="0.2032" layer="21"/>
<wire x1="6.54" y1="-3.25" x2="-1.5" y2="-3.25" width="0.2032" layer="21"/>
<wire x1="-1.5" y1="-3.25" x2="-1.5" y2="2.5" width="0.2032" layer="21"/>
<wire x1="-1.5" y1="2.5" x2="-1.5" y2="3.25" width="0.2032" layer="21"/>
<wire x1="-1.5" y1="2.5" x2="6.54" y2="2.5" width="0.2032" layer="21"/>
<text x="-1.27" y="3.429" size="0.6096" layer="25" font="vector" ratio="20">&gt;NAME</text>
<text x="-1.27" y="-4.064" size="0.6096" layer="27" font="vector" ratio="20">&gt;VALUE</text>
<pad name="3" x="5.08" y="0" drill="1.016" shape="square"/>
</package>
<package name="5V_SONGLE_RELAY">
<pad name="1" x="0" y="0" drill="1"/>
<pad name="2" x="2" y="6" drill="1"/>
<pad name="3" x="2" y="-6" drill="1"/>
<pad name="4" x="14.2" y="6" drill="1"/>
<pad name="5" x="14.2" y="-6" drill="1"/>
<wire x1="-1.4" y1="-7.75" x2="-1.4" y2="7.75" width="0.127" layer="21"/>
<wire x1="-1.4" y1="7.75" x2="17.7" y2="7.75" width="0.127" layer="21"/>
<wire x1="17.7" y1="7.75" x2="17.7" y2="-7.75" width="0.127" layer="21"/>
<wire x1="17.7" y1="-7.75" x2="-1.4" y2="-7.75" width="0.127" layer="21"/>
<text x="-1.27" y="8.255" size="1.27" layer="25">&gt;NAME</text>
<text x="0" y="-9.525" size="1.27" layer="27">&gt;NAME</text>
</package>
<package name="EL817S">
<smd name="1" x="0" y="0" dx="2.4" dy="1.2" layer="1"/>
<smd name="2" x="0" y="-2.54" dx="2.4" dy="1.2" layer="1"/>
<smd name="3" x="10" y="-2.54" dx="2.4" dy="1.2" layer="1"/>
<smd name="4" x="10" y="0" dx="2.4" dy="1.2" layer="1"/>
<wire x1="1.8" y1="1.23" x2="1.8" y2="-3.77" width="0.127" layer="21"/>
<wire x1="1.8" y1="-3.77" x2="8.15" y2="-3.76" width="0.127" layer="21"/>
<wire x1="8.15" y1="-3.76" x2="8.15" y2="1.23" width="0.127" layer="21"/>
<wire x1="8.15" y1="1.23" x2="1.8" y2="1.23" width="0.127" layer="21"/>
<circle x="0.6" y="1.4" radius="0.2" width="0.3048" layer="21"/>
<text x="0.1" y="1.95" size="1.27" layer="25">&gt;NAME</text>
<text x="2.36" y="-5.64" size="1.27" layer="27">&gt;VALUE</text>
</package>
<package name="KF8500_2P_TERMINA-BLOCK">
<pad name="1" x="0" y="0" drill="1.2" diameter="1.8" shape="square"/>
<pad name="2" x="8.5" y="0" drill="1.2"/>
<wire x1="-4.25" y1="-10" x2="12.75" y2="-10" width="0.127" layer="21"/>
<wire x1="12.75" y1="-10" x2="12.75" y2="2" width="0.127" layer="21"/>
<wire x1="12.75" y1="2" x2="-4.25" y2="2" width="0.127" layer="21"/>
<wire x1="-4.25" y1="2" x2="-4.25" y2="-10" width="0.127" layer="21"/>
<text x="-4.445" y="2.54" size="1.27" layer="25">&gt;NAME</text>
<text x="5.715" y="-11.43" size="1.27" layer="27">&gt;VALUE</text>
</package>
</packages>
<symbols>
<symbol name="NTR2101P">
<wire x1="0.762" y1="0.762" x2="0.762" y2="0" width="0.254" layer="94"/>
<wire x1="0.762" y1="0" x2="0.762" y2="-0.762" width="0.254" layer="94"/>
<wire x1="0.762" y1="3.175" x2="0.762" y2="2.54" width="0.254" layer="94"/>
<wire x1="0.762" y1="2.54" x2="0.762" y2="1.905" width="0.254" layer="94"/>
<wire x1="0.762" y1="0" x2="2.54" y2="0" width="0.1524" layer="94"/>
<wire x1="2.54" y1="0" x2="2.54" y2="-2.54" width="0.1524" layer="94"/>
<wire x1="0.762" y1="-1.905" x2="0.762" y2="-2.54" width="0.254" layer="94"/>
<wire x1="0.762" y1="-2.54" x2="0.762" y2="-3.175" width="0.254" layer="94"/>
<wire x1="0" y1="2.54" x2="0" y2="-2.54" width="0.254" layer="94"/>
<wire x1="2.54" y1="-2.54" x2="0.762" y2="-2.54" width="0.1524" layer="94"/>
<wire x1="3.81" y1="2.54" x2="3.81" y2="-0.508" width="0.1524" layer="94"/>
<wire x1="3.81" y1="-0.508" x2="3.81" y2="-2.54" width="0.1524" layer="94"/>
<wire x1="2.54" y1="-2.54" x2="3.81" y2="-2.54" width="0.1524" layer="94"/>
<wire x1="0.762" y1="2.54" x2="3.81" y2="2.54" width="0.1524" layer="94"/>
<wire x1="3.048" y1="-0.762" x2="3.302" y2="-0.508" width="0.1524" layer="94"/>
<wire x1="3.302" y1="-0.508" x2="3.81" y2="-0.508" width="0.1524" layer="94"/>
<wire x1="3.81" y1="-0.508" x2="4.318" y2="-0.508" width="0.1524" layer="94"/>
<wire x1="4.318" y1="-0.508" x2="4.572" y2="-0.254" width="0.1524" layer="94"/>
<circle x="2.54" y="-2.54" radius="0.3592" width="0" layer="94"/>
<circle x="2.54" y="2.54" radius="0.3592" width="0" layer="94"/>
<text x="3.048" y="-4.572" size="1.778" layer="96">&gt;VALUE</text>
<text x="-2.54" y="2.794" size="1.778" layer="95">&gt;NAME</text>
<pin name="S" x="2.54" y="-5.08" visible="off" length="short" direction="pas" rot="R90"/>
<pin name="G" x="-2.54" y="0" visible="off" length="short" direction="pas"/>
<pin name="D" x="2.54" y="5.08" visible="off" length="short" direction="pas" rot="R270"/>
<polygon width="0.1524" layer="94">
<vertex x="3.81" y="-0.508"/>
<vertex x="4.318" y="0.254"/>
<vertex x="3.302" y="0.254"/>
</polygon>
<polygon width="0.1524" layer="94">
<vertex x="2.54" y="0"/>
<vertex x="1.524" y="-0.762"/>
<vertex x="1.524" y="0.762"/>
</polygon>
</symbol>
<symbol name="SHORTKEY">
<wire x1="-1.27" y1="-1.27" x2="1.27" y2="0" width="0.254" layer="94"/>
<wire x1="1.27" y1="0" x2="-1.27" y2="1.27" width="0.254" layer="94"/>
<wire x1="1.905" y1="1.27" x2="1.27" y2="1.27" width="0.254" layer="94"/>
<wire x1="1.27" y1="1.27" x2="1.27" y2="0" width="0.254" layer="94"/>
<wire x1="-1.27" y1="1.27" x2="-1.27" y2="-1.27" width="0.254" layer="94"/>
<wire x1="1.27" y1="0" x2="1.27" y2="-1.27" width="0.254" layer="94"/>
<wire x1="1.905" y1="1.27" x2="1.905" y2="1.016" width="0.254" layer="94"/>
<wire x1="1.27" y1="-1.27" x2="0.635" y2="-1.27" width="0.254" layer="94"/>
<wire x1="0.635" y1="-1.016" x2="0.635" y2="-1.27" width="0.254" layer="94"/>
<text x="-2.286" y="1.905" size="1.778" layer="95">&gt;NAME</text>
<text x="-2.286" y="-3.429" size="1.778" layer="96">&gt;VALUE</text>
<pin name="A" x="-2.54" y="0" visible="off" length="short" direction="pas"/>
<pin name="C" x="2.54" y="0" visible="off" length="short" direction="pas" rot="R180"/>
</symbol>
<symbol name="SX1276_RORA_MODULE">
<pin name="GND" x="-20.32" y="15.24" length="middle"/>
<pin name="CS" x="-20.32" y="12.7" length="middle"/>
<pin name="DIO3" x="-20.32" y="10.16" length="middle"/>
<pin name="RST" x="-20.32" y="7.62" length="middle"/>
<pin name="DIO0" x="-20.32" y="5.08" length="middle"/>
<pin name="DIO1" x="-20.32" y="2.54" length="middle"/>
<pin name="DIO2" x="-20.32" y="0" length="middle"/>
<pin name="NC1" x="5.08" y="15.24" length="middle" rot="R180"/>
<pin name="3.3V" x="5.08" y="12.7" length="middle" rot="R180"/>
<pin name="SCK" x="5.08" y="10.16" length="middle" rot="R180"/>
<pin name="MISO" x="5.08" y="7.62" length="middle" rot="R180"/>
<pin name="MOSI" x="5.08" y="5.08" length="middle" rot="R180"/>
<pin name="NC2" x="5.08" y="2.54" length="middle" rot="R180"/>
<pin name="VS" x="5.08" y="0" length="middle" rot="R180"/>
<wire x1="-15.24" y1="17.78" x2="-15.24" y2="-2.54" width="0.254" layer="94"/>
<wire x1="-15.24" y1="-2.54" x2="0" y2="-2.54" width="0.254" layer="94"/>
<wire x1="0" y1="-2.54" x2="0" y2="17.78" width="0.254" layer="94"/>
<wire x1="0" y1="17.78" x2="-15.24" y2="17.78" width="0.254" layer="94"/>
<text x="-13.97" y="18.288" size="1.778" layer="95">&gt;NAME</text>
<text x="-12.7" y="-5.08" size="1.778" layer="96">&gt;VALUE</text>
</symbol>
<symbol name="1MM_PIN_HEADER">
<wire x1="0" y1="0" x2="0" y2="-15.24" width="0.254" layer="94"/>
<wire x1="0" y1="-15.24" x2="5.08" y2="-15.24" width="0.254" layer="94"/>
<wire x1="5.08" y1="-15.24" x2="5.08" y2="0" width="0.254" layer="94"/>
<wire x1="5.08" y1="0" x2="0" y2="0" width="0.254" layer="94"/>
<pin name="1" x="-5.08" y="-2.54" length="middle"/>
<pin name="2" x="-5.08" y="-7.62" length="middle"/>
<pin name="3" x="-5.08" y="-12.7" length="middle"/>
<text x="0" y="1" size="1.27" layer="95">&gt;NAME</text>
<text x="0" y="-17.78" size="1.27" layer="96">&gt;VALUE</text>
</symbol>
<symbol name="ETA1096">
<wire x1="0" y1="0" x2="17.78" y2="0" width="0.254" layer="94"/>
<wire x1="17.78" y1="0" x2="17.78" y2="-15.24" width="0.254" layer="94"/>
<wire x1="0" y1="-15.24" x2="0" y2="0" width="0.254" layer="94"/>
<wire x1="0" y1="-15.24" x2="17.78" y2="-15.24" width="0.254" layer="94"/>
<pin name="GND1" x="-5.08" y="-2.54" length="middle" swaplevel="1"/>
<pin name="EN" x="-5.08" y="-5.08" length="middle"/>
<pin name="SW" x="-5.08" y="-7.62" length="middle"/>
<pin name="IN" x="-5.08" y="-10.16" length="middle"/>
<pin name="FB" x="22.86" y="-12.7" length="middle" rot="R180"/>
<pin name="ISET" x="22.86" y="-9.525" length="middle" rot="R180"/>
<pin name="OUT" x="22.86" y="-5.715" length="middle" rot="R180"/>
<pin name="GND2" x="22.86" y="-2.54" length="middle" rot="R180"/>
<text x="0" y="1.27" size="1.27" layer="95">&gt;NAME</text>
<text x="10.795" y="-17.145" size="1.27" layer="96">&gt;VALUE</text>
<pin name="GND" x="-5.08" y="-12.7" length="middle"/>
</symbol>
<symbol name="ETA9741">
<wire x1="0" y1="0" x2="20.32" y2="0" width="0.254" layer="94"/>
<wire x1="20.32" y1="0" x2="20.32" y2="-14.605" width="0.254" layer="94"/>
<wire x1="20.32" y1="-14.605" x2="0" y2="-14.605" width="0.254" layer="94"/>
<wire x1="0" y1="-14.605" x2="0" y2="0" width="0.254" layer="94"/>
<pin name="SW" x="-5.08" y="-2.54" length="middle"/>
<pin name="LED12" x="-5.08" y="-5.08" length="middle"/>
<pin name="LED34" x="-5.08" y="-7.62" length="middle"/>
<pin name="LEDC" x="-5.08" y="-10.16" length="middle"/>
<pin name="BTN" x="25.4" y="-10.16" length="middle" rot="R180"/>
<pin name="BAT" x="25.4" y="-7.62" length="middle" rot="R180"/>
<pin name="IN/OUT" x="25.4" y="-5.08" length="middle" rot="R180"/>
<pin name="GND" x="25.4" y="-2.54" length="middle" rot="R180"/>
<text x="0" y="0" size="1.778" layer="95">&gt;NAME</text>
<text x="10.795" y="-17.145" size="1.778" layer="96">&gt;VALUE</text>
<pin name="EX_GND" x="-5.08" y="-13.335" length="middle"/>
</symbol>
<symbol name="SS34-E3/57T">
<wire x1="-1.27" y1="-1.27" x2="1.27" y2="0" width="0.254" layer="94"/>
<wire x1="1.27" y1="0" x2="-1.27" y2="1.27" width="0.254" layer="94"/>
<wire x1="1.905" y1="1.27" x2="1.27" y2="1.27" width="0.254" layer="94"/>
<wire x1="1.27" y1="1.27" x2="1.27" y2="0" width="0.254" layer="94"/>
<wire x1="-1.27" y1="1.27" x2="-1.27" y2="-1.27" width="0.254" layer="94"/>
<wire x1="1.27" y1="0" x2="1.27" y2="-1.27" width="0.254" layer="94"/>
<wire x1="1.905" y1="1.27" x2="1.905" y2="1.016" width="0.254" layer="94"/>
<wire x1="1.27" y1="-1.27" x2="0.635" y2="-1.27" width="0.254" layer="94"/>
<wire x1="0.635" y1="-1.016" x2="0.635" y2="-1.27" width="0.254" layer="94"/>
<text x="-2.286" y="1.905" size="1.778" layer="95">&gt;NAME</text>
<text x="-2.286" y="-3.429" size="1.778" layer="96">&gt;VALUE</text>
<pin name="A" x="-2.54" y="0" visible="off" length="short" direction="pas"/>
<pin name="C" x="2.54" y="0" visible="off" length="short" direction="pas" rot="R180"/>
</symbol>
<symbol name="2.2UH/15A">
<wire x1="0" y1="5.08" x2="1.27" y2="3.81" width="0.254" layer="94" curve="-90"/>
<wire x1="0" y1="2.54" x2="1.27" y2="3.81" width="0.254" layer="94" curve="90"/>
<wire x1="0" y1="2.54" x2="1.27" y2="1.27" width="0.254" layer="94" curve="-90"/>
<wire x1="0" y1="0" x2="1.27" y2="1.27" width="0.254" layer="94" curve="90"/>
<wire x1="0" y1="0" x2="1.27" y2="-1.27" width="0.254" layer="94" curve="-90"/>
<wire x1="0" y1="-2.54" x2="1.27" y2="-1.27" width="0.254" layer="94" curve="90"/>
<wire x1="0" y1="-2.54" x2="1.27" y2="-3.81" width="0.254" layer="94" curve="-90"/>
<wire x1="0" y1="-5.08" x2="1.27" y2="-3.81" width="0.254" layer="94" curve="90"/>
<text x="-1.27" y="-5.08" size="1.778" layer="95" rot="R90">&gt;NAME</text>
<text x="3.81" y="-5.08" size="1.778" layer="96" rot="R90">&gt;VALUE</text>
<pin name="2" x="0" y="-7.62" visible="off" length="short" direction="pas" swaplevel="1" rot="R90"/>
<pin name="1" x="0" y="7.62" visible="off" length="short" direction="pas" swaplevel="1" rot="R270"/>
</symbol>
<symbol name="P_CHANEL_MOSFET">
<wire x1="0.762" y1="0.762" x2="0.762" y2="0" width="0.254" layer="94"/>
<wire x1="0.762" y1="0" x2="0.762" y2="-0.762" width="0.254" layer="94"/>
<wire x1="0.762" y1="3.175" x2="0.762" y2="2.54" width="0.254" layer="94"/>
<wire x1="0.762" y1="2.54" x2="0.762" y2="1.905" width="0.254" layer="94"/>
<wire x1="0.762" y1="0" x2="2.54" y2="0" width="0.1524" layer="94"/>
<wire x1="2.54" y1="0" x2="2.54" y2="-2.54" width="0.1524" layer="94"/>
<wire x1="0.762" y1="-1.905" x2="0.762" y2="-2.54" width="0.254" layer="94"/>
<wire x1="0.762" y1="-2.54" x2="0.762" y2="-3.175" width="0.254" layer="94"/>
<wire x1="0" y1="2.54" x2="0" y2="-2.54" width="0.254" layer="94"/>
<wire x1="2.54" y1="-2.54" x2="0.762" y2="-2.54" width="0.1524" layer="94"/>
<wire x1="3.81" y1="2.54" x2="3.81" y2="-0.508" width="0.1524" layer="94"/>
<wire x1="3.81" y1="-0.508" x2="3.81" y2="-2.54" width="0.1524" layer="94"/>
<wire x1="2.54" y1="-2.54" x2="3.81" y2="-2.54" width="0.1524" layer="94"/>
<wire x1="0.762" y1="2.54" x2="3.81" y2="2.54" width="0.1524" layer="94"/>
<wire x1="3.048" y1="-0.762" x2="3.302" y2="-0.508" width="0.1524" layer="94"/>
<wire x1="3.302" y1="-0.508" x2="3.81" y2="-0.508" width="0.1524" layer="94"/>
<wire x1="3.81" y1="-0.508" x2="4.318" y2="-0.508" width="0.1524" layer="94"/>
<wire x1="4.318" y1="-0.508" x2="4.572" y2="-0.254" width="0.1524" layer="94"/>
<circle x="2.54" y="-2.54" radius="0.3592" width="0" layer="94"/>
<circle x="2.54" y="2.54" radius="0.3592" width="0" layer="94"/>
<text x="3.048" y="-4.572" size="1.778" layer="96">&gt;VALUE</text>
<text x="-7.62" y="2.794" size="1.778" layer="95">&gt;NAME</text>
<pin name="S" x="2.54" y="-5.08" visible="off" length="short" direction="pas" rot="R90"/>
<pin name="G" x="-2.54" y="0" visible="off" length="short" direction="pas"/>
<pin name="D" x="2.54" y="5.08" visible="off" length="short" direction="pas" rot="R270"/>
<polygon width="0.1524" layer="94">
<vertex x="3.81" y="-0.508"/>
<vertex x="4.318" y="0.254"/>
<vertex x="3.302" y="0.254"/>
</polygon>
<polygon width="0.1524" layer="94">
<vertex x="2.54" y="0"/>
<vertex x="1.524" y="-0.762"/>
<vertex x="1.524" y="0.762"/>
</polygon>
</symbol>
<symbol name="NPN_TRANSISTOR">
</symbol>
<symbol name="MMBT394L">
<wire x1="5.08" y1="2.54" x2="3.048" y2="1.524" width="0.1524" layer="94"/>
<wire x1="4.318" y1="-1.524" x2="5.08" y2="-2.54" width="0.1524" layer="94"/>
<wire x1="5.08" y1="-2.54" x2="3.81" y2="-2.54" width="0.1524" layer="94"/>
<wire x1="3.81" y1="-2.54" x2="4.318" y2="-1.524" width="0.1524" layer="94"/>
<wire x1="4.08" y1="-2.04" x2="2.848" y2="-1.424" width="0.1524" layer="94"/>
<wire x1="4.064" y1="-2.413" x2="4.826" y2="-2.413" width="0.254" layer="94"/>
<wire x1="4.826" y1="-2.413" x2="4.318" y2="-1.778" width="0.254" layer="94"/>
<wire x1="4.318" y1="-1.778" x2="4.064" y2="-2.286" width="0.254" layer="94"/>
<wire x1="4.064" y1="-2.286" x2="4.445" y2="-2.286" width="0.254" layer="94"/>
<wire x1="4.445" y1="-2.286" x2="4.318" y2="-2.032" width="0.254" layer="94"/>
<text x="-7.62" y="7.62" size="1.778" layer="95">&gt;NAME</text>
<text x="-7.62" y="5.08" size="1.778" layer="96">&gt;VALUE</text>
<rectangle x1="2.286" y1="-2.54" x2="3.048" y2="2.54" layer="94"/>
<pin name="B" x="0" y="0" visible="off" length="short" direction="pas" swaplevel="1"/>
<pin name="E" x="5.08" y="-5.08" visible="off" length="short" direction="pas" swaplevel="3" rot="R90"/>
<pin name="C" x="5.08" y="5.08" visible="off" length="short" direction="pas" swaplevel="2" rot="R270"/>
</symbol>
<symbol name="FB">
<wire x1="-2.54" y1="2.54" x2="-1.27" y2="3.81" width="0.254" layer="94" curve="-90"/>
<wire x1="0" y1="2.54" x2="-1.27" y2="3.81" width="0.254" layer="94" curve="90"/>
<wire x1="0" y1="2.54" x2="1.27" y2="3.81" width="0.254" layer="94" curve="-90"/>
<wire x1="2.54" y1="2.54" x2="1.27" y2="3.81" width="0.254" layer="94" curve="90"/>
<wire x1="2.54" y1="2.54" x2="3.81" y2="3.81" width="0.254" layer="94" curve="-90"/>
<wire x1="5.08" y1="2.54" x2="3.81" y2="3.81" width="0.254" layer="94" curve="90"/>
<wire x1="5.08" y1="2.54" x2="6.35" y2="3.81" width="0.254" layer="94" curve="-90"/>
<wire x1="7.62" y1="2.54" x2="6.35" y2="3.81" width="0.254" layer="94" curve="90"/>
<text x="5.08" y="6.35" size="1.778" layer="95" rot="R180">&gt;NAME</text>
<text x="7.62" y="1.27" size="1.778" layer="96" rot="R180">&gt;VALUE</text>
<pin name="2" x="10.16" y="2.54" visible="off" length="short" direction="pas" swaplevel="1" rot="R180"/>
<pin name="1" x="-5.08" y="2.54" visible="off" length="short" direction="pas" swaplevel="1"/>
</symbol>
<symbol name="XC6221A332MR-G">
<wire x1="0" y1="0" x2="17.78" y2="0" width="0.254" layer="94"/>
<wire x1="17.78" y1="0" x2="17.78" y2="-15.24" width="0.254" layer="94"/>
<wire x1="17.78" y1="-15.24" x2="0" y2="-15.24" width="0.254" layer="94"/>
<wire x1="0" y1="-15.24" x2="0" y2="0" width="0.254" layer="94"/>
<pin name="VIN" x="-5.08" y="-2.54" length="middle"/>
<pin name="GND" x="-5.08" y="-7.62" length="middle"/>
<pin name="EN" x="-5.08" y="-12.7" length="middle"/>
<pin name="NC" x="22.86" y="-10.16" length="middle" rot="R180"/>
<pin name="VOUT" x="22.86" y="-5.08" length="middle" rot="R180"/>
<text x="0" y="0" size="1.778" layer="95">&gt;NAME</text>
<text x="7.62" y="-17.78" size="1.778" layer="96">&gt;VALUE</text>
</symbol>
<symbol name="4PIN_SMD_SWITCH">
<wire x1="2.54" y1="1.905" x2="2.54" y2="2.54" width="0.254" layer="94"/>
<wire x1="-1.905" y1="1.905" x2="-0.635" y2="1.905" width="0.254" layer="94"/>
<wire x1="-1.905" y1="-1.905" x2="-0.635" y2="-1.905" width="0.254" layer="94"/>
<wire x1="-1.905" y1="1.905" x2="-1.905" y2="0" width="0.254" layer="94"/>
<wire x1="-1.905" y1="0" x2="-1.905" y2="-1.905" width="0.254" layer="94"/>
<wire x1="0" y1="0" x2="0.635" y2="0" width="0.1524" layer="94"/>
<wire x1="1.27" y1="0" x2="1.905" y2="0" width="0.1524" layer="94"/>
<wire x1="-1.905" y1="0" x2="-0.635" y2="0" width="0.1524" layer="94"/>
<wire x1="5.08" y1="2.54" x2="2.54" y2="2.54" width="0.1524" layer="94"/>
<wire x1="5.08" y1="-2.54" x2="2.54" y2="-2.54" width="0.1524" layer="94"/>
<wire x1="2.54" y1="-2.54" x2="1.27" y2="1.905" width="0.254" layer="94"/>
<circle x="2.54" y="-2.54" radius="0.127" width="0.4064" layer="94"/>
<circle x="2.54" y="2.54" radius="0.127" width="0.4064" layer="94"/>
<text x="-3.81" y="-2.54" size="1.778" layer="95" rot="R90">&gt;NAME</text>
<text x="-1.27" y="3.175" size="1.778" layer="96" rot="R90">&gt;VALUE</text>
<pin name="P" x="2.54" y="-5.08" visible="pad" length="short" direction="pas" swaplevel="2" rot="R90"/>
<pin name="S" x="2.54" y="5.08" visible="pad" length="short" direction="pas" swaplevel="1" rot="R270"/>
<pin name="S1" x="5.08" y="5.08" visible="pad" length="short" direction="pas" swaplevel="1" rot="R270"/>
<pin name="P1" x="5.08" y="-5.08" visible="pad" length="short" direction="pas" swaplevel="2" rot="R90"/>
</symbol>
<symbol name="3X4X2_2PIN_SWITCH">
<wire x1="1.905" y1="4.445" x2="1.905" y2="3.175" width="0.254" layer="94"/>
<wire x1="-1.905" y1="4.445" x2="-1.905" y2="3.175" width="0.254" layer="94"/>
<wire x1="1.905" y1="4.445" x2="0" y2="4.445" width="0.254" layer="94"/>
<wire x1="0" y1="4.445" x2="-1.905" y2="4.445" width="0.254" layer="94"/>
<wire x1="0" y1="2.54" x2="0" y2="1.905" width="0.1524" layer="94"/>
<wire x1="0" y1="1.27" x2="0" y2="0.635" width="0.1524" layer="94"/>
<wire x1="0" y1="4.445" x2="0" y2="3.175" width="0.1524" layer="94"/>
<wire x1="-2.54" y1="0" x2="1.905" y2="1.27" width="0.254" layer="94"/>
<circle x="-2.54" y="0" radius="0.127" width="0.4064" layer="94"/>
<circle x="2.54" y="0" radius="0.127" width="0.4064" layer="94"/>
<text x="-2.54" y="6.35" size="1.778" layer="95">&gt;NAME</text>
<text x="3.175" y="3.81" size="1.778" layer="96">&gt;VALUE</text>
<pin name="P" x="-5.08" y="0" visible="pad" length="short" direction="pas" swaplevel="2"/>
<pin name="S" x="5.08" y="0" visible="pad" length="short" direction="pas" swaplevel="1" rot="R180"/>
</symbol>
<symbol name="CAP_POLPTH1">
<wire x1="-2.54" y1="0" x2="2.54" y2="0" width="0.254" layer="94"/>
<wire x1="0" y1="-1.016" x2="0" y2="-2.54" width="0.1524" layer="94"/>
<wire x1="0" y1="-1" x2="2.4892" y2="-1.8542" width="0.254" layer="94" curve="-37.878202" cap="flat"/>
<wire x1="-2.4669" y1="-1.8504" x2="0" y2="-1.0161" width="0.254" layer="94" curve="-37.376341" cap="flat"/>
<text x="1.016" y="0.635" size="1.778" layer="95" font="vector">&gt;NAME</text>
<text x="1.016" y="-4.191" size="1.778" layer="96" font="vector">&gt;VALUE</text>
<rectangle x1="-2.253" y1="0.668" x2="-1.364" y2="0.795" layer="94"/>
<rectangle x1="-1.872" y1="0.287" x2="-1.745" y2="1.176" layer="94"/>
<pin name="+" x="0" y="2.54" visible="off" length="short" direction="pas" swaplevel="1" rot="R270"/>
<pin name="-" x="0" y="-5.08" visible="off" length="short" direction="pas" swaplevel="1" rot="R90"/>
</symbol>
<symbol name="HSMF-C118">
<wire x1="0" y1="0" x2="0" y2="-1.27" width="0.2" layer="94"/>
<wire x1="0" y1="-1.27" x2="0" y2="-2.54" width="0.2" layer="94"/>
<wire x1="0" y1="-2.54" x2="1.27" y2="-1.27" width="0.2" layer="94"/>
<wire x1="1.27" y1="-1.27" x2="0" y2="0" width="0.2" layer="94"/>
<wire x1="1.27" y1="0" x2="1.27" y2="-1.27" width="0.2" layer="94"/>
<wire x1="1.27" y1="-1.27" x2="1.27" y2="-2.54" width="0.2" layer="94"/>
<wire x1="0.3" y1="-0.1" x2="1.2" y2="0.8" width="0.2" layer="94"/>
<wire x1="1.2" y1="0.8" x2="0.6" y2="0.5" width="0.2" layer="94"/>
<wire x1="1.2" y1="0.8" x2="0.9" y2="0.3" width="0.2" layer="94"/>
<wire x1="0.7" y1="-0.6" x2="1.7" y2="0.4" width="0.2" layer="94"/>
<wire x1="1.7" y1="0.4" x2="1.1" y2="0.1" width="0.2" layer="94"/>
<wire x1="1.7" y1="0.4" x2="1.4" y2="-0.1" width="0.2" layer="94"/>
<wire x1="0.045" y1="-3.785" x2="0.045" y2="-6.325" width="0.2" layer="94"/>
<wire x1="0.045" y1="-6.325" x2="1.315" y2="-5.055" width="0.2" layer="94"/>
<wire x1="1.315" y1="-5.055" x2="0.045" y2="-3.785" width="0.2" layer="94"/>
<wire x1="1.315" y1="-3.785" x2="1.315" y2="-6.325" width="0.2" layer="94"/>
<wire x1="0.345" y1="-3.885" x2="1.245" y2="-2.985" width="0.2" layer="94"/>
<wire x1="1.245" y1="-2.985" x2="0.645" y2="-3.285" width="0.2" layer="94"/>
<wire x1="1.245" y1="-2.985" x2="0.945" y2="-3.485" width="0.2" layer="94"/>
<wire x1="0.745" y1="-4.385" x2="1.745" y2="-3.385" width="0.2" layer="94"/>
<wire x1="1.745" y1="-3.385" x2="1.145" y2="-3.685" width="0.2" layer="94"/>
<wire x1="1.745" y1="-3.385" x2="1.445" y2="-3.885" width="0.2" layer="94"/>
<wire x1="0.045" y1="-7.595" x2="0.045" y2="-10.135" width="0.2" layer="94"/>
<wire x1="0.045" y1="-10.135" x2="1.315" y2="-8.865" width="0.2" layer="94"/>
<wire x1="1.315" y1="-8.865" x2="0.045" y2="-7.595" width="0.2" layer="94"/>
<wire x1="1.315" y1="-7.595" x2="1.315" y2="-10.135" width="0.2" layer="94"/>
<wire x1="0.345" y1="-7.695" x2="1.245" y2="-6.795" width="0.2" layer="94"/>
<wire x1="1.245" y1="-6.795" x2="0.645" y2="-7.095" width="0.2" layer="94"/>
<wire x1="1.245" y1="-6.795" x2="0.945" y2="-7.295" width="0.2" layer="94"/>
<wire x1="0.745" y1="-8.195" x2="1.745" y2="-7.195" width="0.2" layer="94"/>
<wire x1="1.745" y1="-7.195" x2="1.145" y2="-7.495" width="0.2" layer="94"/>
<wire x1="1.745" y1="-7.195" x2="1.445" y2="-7.695" width="0.2" layer="94"/>
<wire x1="1.27" y1="-1.27" x2="3.81" y2="-1.27" width="0.2" layer="94"/>
<wire x1="3.81" y1="-1.27" x2="5.715" y2="-3.175" width="0.2" layer="94"/>
<wire x1="5.715" y1="-3.175" x2="8.89" y2="-3.175" width="0.2" layer="94"/>
<wire x1="1.27" y1="-5.08" x2="8.89" y2="-5.08" width="0.2" layer="94"/>
<wire x1="1.27" y1="-8.89" x2="3.81" y2="-8.89" width="0.2" layer="94"/>
<wire x1="3.81" y1="-8.89" x2="5.715" y2="-6.985" width="0.2" layer="94"/>
<wire x1="5.715" y1="-6.985" x2="8.89" y2="-6.985" width="0.2" layer="94"/>
<wire x1="0" y1="-1.27" x2="-1.905" y2="-1.27" width="0.2" layer="94"/>
<wire x1="-1.905" y1="-1.27" x2="-1.905" y2="-5.08" width="0.2" layer="94"/>
<wire x1="-1.905" y1="-5.08" x2="-1.905" y2="-8.89" width="0.2" layer="94"/>
<wire x1="-1.905" y1="-8.89" x2="0" y2="-8.89" width="0.2" layer="94"/>
<wire x1="0" y1="-5.08" x2="-1.905" y2="-5.08" width="0.2" layer="94"/>
<wire x1="-1.905" y1="-5.08" x2="-4.445" y2="-5.08" width="0.2" layer="94"/>
<circle x="-1.905" y="-5.08" radius="0.2375375" width="0.3048" layer="94"/>
<pin name="VCC" x="-9.525" y="-5.08" length="middle"/>
<pin name="GREEN" x="13.97" y="-3.175" length="middle" rot="R180"/>
<pin name="RED" x="13.97" y="-5.08" length="middle" rot="R180"/>
<pin name="BULE" x="13.97" y="-6.985" length="middle" rot="R180"/>
<text x="-9.525" y="-0.635" size="1.778" layer="95">&gt;NAME</text>
<text x="3.81" y="-10.795" size="1.778" layer="96">&gt;VALUE</text>
</symbol>
<symbol name="DIODE">
<wire x1="-1.27" y1="-1.27" x2="1.27" y2="0" width="0.254" layer="94"/>
<wire x1="1.27" y1="0" x2="-1.27" y2="1.27" width="0.254" layer="94"/>
<wire x1="1.27" y1="1.27" x2="1.27" y2="0" width="0.254" layer="94"/>
<wire x1="-1.27" y1="1.27" x2="-1.27" y2="-1.27" width="0.254" layer="94"/>
<wire x1="1.27" y1="0" x2="1.27" y2="-1.27" width="0.254" layer="94"/>
<text x="-2.54" y="2.54" size="1.27" layer="95">&gt;NAME</text>
<text x="-2.54" y="-3.81" size="1.27" layer="96">&gt;VALUE</text>
<pin name="A" x="-2.54" y="0" visible="off" length="short" direction="pas"/>
<pin name="C" x="2.54" y="0" visible="off" length="short" direction="pas" rot="R180"/>
</symbol>
<symbol name="1X10_TERMINAL">
<text x="-5.08" y="13.462" size="1.778" layer="95">&gt;Name</text>
<text x="-5.08" y="-17.78" size="1.778" layer="96">&gt;Value</text>
<pin name="P1" x="5.08" y="10.16" visible="pad" length="short" rot="R180"/>
<pin name="P3" x="5.08" y="5.08" visible="pad" length="short" rot="R180"/>
<pin name="P5" x="5.08" y="0" visible="pad" length="short" rot="R180"/>
<pin name="P7" x="5.08" y="-5.08" visible="pad" length="short" rot="R180"/>
<pin name="P9" x="5.08" y="-10.16" visible="pad" length="short" rot="R180"/>
<pin name="P10" x="5.08" y="-12.7" visible="pad" length="short" rot="R180"/>
<pin name="P8" x="5.08" y="-7.62" visible="pad" length="short" rot="R180"/>
<pin name="P6" x="5.08" y="-2.54" visible="pad" length="short" rot="R180"/>
<pin name="P4" x="5.08" y="2.54" visible="pad" length="short" rot="R180"/>
<pin name="P2" x="5.08" y="7.62" visible="pad" length="short" rot="R180"/>
<wire x1="-2.54" y1="12.7" x2="2.54" y2="12.7" width="0.254" layer="94"/>
<wire x1="2.54" y1="12.7" x2="2.54" y2="-15.24" width="0.254" layer="94"/>
<wire x1="2.54" y1="-15.24" x2="-2.54" y2="-15.24" width="0.254" layer="94"/>
<wire x1="-2.54" y1="-15.24" x2="-2.54" y2="12.7" width="0.254" layer="94"/>
<circle x="0" y="10.16" radius="1.077628125" width="0.254" layer="94"/>
<circle x="0" y="7.62" radius="1.077628125" width="0.254" layer="94"/>
<circle x="0" y="5.08" radius="1.077628125" width="0.254" layer="94"/>
<circle x="0" y="2.54" radius="1.077628125" width="0.254" layer="94"/>
<circle x="0" y="0" radius="1.077628125" width="0.254" layer="94"/>
<circle x="0" y="-2.54" radius="1.077628125" width="0.254" layer="94"/>
<circle x="0" y="-5.08" radius="1.077628125" width="0.254" layer="94"/>
<circle x="0" y="-7.62" radius="1.077628125" width="0.254" layer="94"/>
<circle x="0" y="-10.16" radius="1.077628125" width="0.254" layer="94"/>
<circle x="0" y="-12.7" radius="1.077628125" width="0.254" layer="94"/>
</symbol>
<symbol name="1X5_TERMINAL">
<text x="-5.08" y="13.462" size="1.778" layer="95">&gt;Name</text>
<text x="-5.08" y="-5.08" size="1.778" layer="96">&gt;Value</text>
<pin name="P1" x="5.08" y="10.16" visible="pad" length="short" rot="R180"/>
<pin name="P3" x="5.08" y="5.08" visible="pad" length="short" rot="R180"/>
<pin name="P5" x="5.08" y="0" visible="pad" length="short" rot="R180"/>
<pin name="P4" x="5.08" y="2.54" visible="pad" length="short" rot="R180"/>
<pin name="P2" x="5.08" y="7.62" visible="pad" length="short" rot="R180"/>
<wire x1="-2.54" y1="12.7" x2="2.54" y2="12.7" width="0.254" layer="94"/>
<wire x1="2.54" y1="12.7" x2="2.54" y2="-2.54" width="0.254" layer="94"/>
<wire x1="2.54" y1="-2.54" x2="-2.54" y2="-2.54" width="0.254" layer="94"/>
<wire x1="-2.54" y1="-2.54" x2="-2.54" y2="12.7" width="0.254" layer="94"/>
<circle x="0" y="10.16" radius="1.077628125" width="0.254" layer="94"/>
<circle x="0" y="7.62" radius="1.077628125" width="0.254" layer="94"/>
<circle x="0" y="5.08" radius="1.077628125" width="0.254" layer="94"/>
<circle x="0" y="2.54" radius="1.077628125" width="0.254" layer="94"/>
<circle x="0" y="0" radius="1.077628125" width="0.254" layer="94"/>
</symbol>
<symbol name="2X20_HEADER">
<wire x1="-5.08" y1="27.94" x2="5.08" y2="27.94" width="0.254" layer="94"/>
<wire x1="5.08" y1="27.94" x2="5.08" y2="-25.4" width="0.254" layer="94"/>
<wire x1="5.08" y1="-25.4" x2="-5.08" y2="-25.4" width="0.254" layer="94"/>
<wire x1="-5.08" y1="-25.4" x2="-5.08" y2="27.94" width="0.254" layer="94"/>
<pin name="1" x="-7.62" y="25.4" length="short"/>
<pin name="2" x="7.62" y="25.4" length="short" rot="R180"/>
<pin name="3" x="-7.62" y="22.86" length="short"/>
<pin name="4" x="7.62" y="22.86" length="short" rot="R180"/>
<pin name="5" x="-7.62" y="20.32" length="short"/>
<pin name="6" x="7.62" y="20.32" length="short" rot="R180"/>
<pin name="7" x="-7.62" y="17.78" length="short"/>
<pin name="8" x="7.62" y="17.78" length="short" rot="R180"/>
<pin name="9" x="-7.62" y="15.24" length="short"/>
<pin name="10" x="7.62" y="15.24" length="short" rot="R180"/>
<pin name="11" x="-7.62" y="12.7" length="short"/>
<pin name="12" x="7.62" y="12.7" length="short" rot="R180"/>
<pin name="13" x="-7.62" y="10.16" length="short"/>
<pin name="14" x="7.62" y="10.16" length="short" rot="R180"/>
<pin name="15" x="-7.62" y="7.62" length="short"/>
<pin name="16" x="7.62" y="7.62" length="short" rot="R180"/>
<pin name="17" x="-7.62" y="5.08" length="short"/>
<pin name="18" x="7.62" y="5.08" length="short" rot="R180"/>
<pin name="19" x="-7.62" y="2.54" length="short"/>
<pin name="20" x="7.62" y="2.54" length="short" rot="R180"/>
<pin name="21" x="-7.62" y="0" length="short"/>
<pin name="22" x="7.62" y="0" length="short" rot="R180"/>
<pin name="23" x="-7.62" y="-2.54" length="short"/>
<pin name="24" x="7.62" y="-2.54" length="short" rot="R180"/>
<pin name="25" x="-7.62" y="-5.08" length="short"/>
<pin name="26" x="7.62" y="-5.08" length="short" rot="R180"/>
<pin name="27" x="-7.62" y="-7.62" length="short"/>
<pin name="28" x="7.62" y="-7.62" length="short" rot="R180"/>
<pin name="29" x="-7.62" y="-10.16" length="short"/>
<pin name="30" x="7.62" y="-10.16" length="short" rot="R180"/>
<pin name="31" x="-7.62" y="-12.7" length="short"/>
<pin name="32" x="7.62" y="-12.7" length="short" rot="R180"/>
<pin name="33" x="-7.62" y="-15.24" length="short"/>
<pin name="34" x="7.62" y="-15.24" length="short" rot="R180"/>
<pin name="35" x="-7.62" y="-17.78" length="short"/>
<pin name="36" x="7.62" y="-17.78" length="short" rot="R180"/>
<pin name="37" x="-7.62" y="-20.32" length="short"/>
<pin name="38" x="7.62" y="-20.32" length="short" rot="R180"/>
<pin name="39" x="-7.62" y="-22.86" length="short"/>
<pin name="40" x="7.62" y="-22.86" length="short" rot="R180"/>
<text x="-5.08" y="27.94" size="1.778" layer="95">&gt;NAME</text>
<text x="-5.08" y="-27.94" size="1.778" layer="96">&gt;VALUE</text>
</symbol>
<symbol name="1X2_TERMINAL">
<text x="-5.08" y="8.382" size="1.778" layer="95">&gt;Name</text>
<text x="-5.08" y="-2.54" size="1.778" layer="96">&gt;Value</text>
<pin name="P1" x="5.08" y="5.08" visible="pad" length="short" rot="R180"/>
<pin name="P2" x="5.08" y="2.54" visible="pad" length="short" rot="R180"/>
<wire x1="-2.54" y1="7.62" x2="2.54" y2="7.62" width="0.254" layer="94"/>
<wire x1="2.54" y1="7.62" x2="2.54" y2="0" width="0.254" layer="94"/>
<wire x1="2.54" y1="0" x2="-2.54" y2="0" width="0.254" layer="94"/>
<wire x1="-2.54" y1="0" x2="-2.54" y2="7.62" width="0.254" layer="94"/>
<circle x="0" y="5.08" radius="1.077628125" width="0.254" layer="94"/>
<circle x="0" y="2.54" radius="1.077628125" width="0.254" layer="94"/>
</symbol>
<symbol name="1X3_TERMINAL">
<text x="-5.08" y="5.842" size="1.778" layer="95">&gt;Name</text>
<text x="-5.08" y="-7.62" size="1.778" layer="96">&gt;Value</text>
<pin name="P1" x="5.08" y="2.54" visible="pad" length="short" rot="R180"/>
<pin name="P3" x="5.08" y="-2.54" visible="pad" length="short" rot="R180"/>
<pin name="P2" x="5.08" y="0" visible="pad" length="short" rot="R180"/>
<wire x1="-2.54" y1="5.08" x2="2.54" y2="5.08" width="0.254" layer="94"/>
<wire x1="2.54" y1="5.08" x2="2.54" y2="-5.08" width="0.254" layer="94"/>
<wire x1="2.54" y1="-5.08" x2="-2.54" y2="-5.08" width="0.254" layer="94"/>
<wire x1="-2.54" y1="-5.08" x2="-2.54" y2="5.08" width="0.254" layer="94"/>
<circle x="0" y="2.54" radius="1.077628125" width="0.254" layer="94"/>
<circle x="0" y="0" radius="1.077628125" width="0.254" layer="94"/>
<circle x="0" y="-2.54" radius="1.077628125" width="0.254" layer="94"/>
</symbol>
<symbol name="2X16_LCD">
</symbol>
<symbol name="5V_SONGLE_RELAY">
<wire x1="0" y1="0" x2="0" y2="-10.16" width="0.254" layer="94"/>
<wire x1="0" y1="-10.16" x2="15.24" y2="-10.16" width="0.254" layer="94"/>
<wire x1="15.24" y1="-10.16" x2="15.24" y2="0" width="0.254" layer="94"/>
<wire x1="15.24" y1="0" x2="0" y2="0" width="0.254" layer="94"/>
<pin name="COM" x="-5.08" y="-7.62" length="middle"/>
<pin name="T_N" x="-5.08" y="-5.08" length="middle"/>
<pin name="T_P" x="-5.08" y="-2.54" length="middle"/>
<pin name="NC" x="20.32" y="-7.62" length="middle" rot="R180"/>
<pin name="NO" x="20.32" y="-2.54" length="middle" rot="R180"/>
<text x="0" y="0" size="1.778" layer="95">&gt;NAME</text>
<text x="0" y="-12.7" size="1.778" layer="96">&gt;VALUE</text>
</symbol>
<symbol name="EL817S">
<wire x1="-7.62" y1="-2.54" x2="10.16" y2="-2.54" width="0.254" layer="94"/>
<wire x1="10.16" y1="-2.54" x2="10.16" y2="7.62" width="0.254" layer="94"/>
<wire x1="10.16" y1="7.62" x2="-7.62" y2="7.62" width="0.254" layer="94"/>
<wire x1="-7.62" y1="7.62" x2="-7.62" y2="-2.54" width="0.254" layer="94"/>
<wire x1="7.366" y1="0" x2="5.08" y2="0" width="0.254" layer="94"/>
<wire x1="7.366" y1="5.08" x2="5.08" y2="5.08" width="0.254" layer="94"/>
<wire x1="5.08" y1="0" x2="3.556" y2="1.524" width="0.254" layer="94"/>
<wire x1="3.556" y1="3.556" x2="5.08" y2="5.08" width="0.254" layer="94"/>
<wire x1="3.556" y1="1.016" x2="3.556" y2="4.064" width="0.254" layer="94"/>
<wire x1="3.302" y1="1.016" x2="3.302" y2="4.064" width="0.254" layer="94"/>
<wire x1="3.302" y1="4.064" x2="3.556" y2="4.064" width="0.254" layer="94"/>
<wire x1="3.302" y1="1.016" x2="3.556" y2="1.016" width="0.254" layer="94"/>
<wire x1="5.08" y1="5.08" x2="4.572" y2="5.08" width="0.254" layer="94"/>
<wire x1="-4.953" y1="5.08" x2="-1.905" y2="5.08" width="0.254" layer="94"/>
<wire x1="-1.905" y1="5.08" x2="-1.905" y2="2.032" width="0.254" layer="94"/>
<wire x1="-1.905" y1="2.032" x2="-1.905" y2="0" width="0.254" layer="94"/>
<wire x1="-1.905" y1="0" x2="-4.953" y2="0" width="0.254" layer="94"/>
<wire x1="-1.905" y1="2.032" x2="-1.651" y2="2.286" width="0.254" layer="94"/>
<wire x1="-1.651" y1="2.286" x2="-1.143" y2="2.794" width="0.254" layer="94"/>
<wire x1="-1.143" y1="2.794" x2="-0.889" y2="3.048" width="0.254" layer="94"/>
<wire x1="-1.905" y1="2.032" x2="-2.159" y2="2.286" width="0.254" layer="94"/>
<wire x1="-2.159" y1="2.286" x2="-2.921" y2="3.048" width="0.254" layer="94"/>
<wire x1="-0.889" y1="3.048" x2="-1.397" y2="3.048" width="0.254" layer="94"/>
<wire x1="-1.397" y1="3.048" x2="-2.667" y2="3.048" width="0.254" layer="94"/>
<wire x1="-2.921" y1="3.048" x2="-2.667" y2="3.048" width="0.254" layer="94"/>
<wire x1="-2.667" y1="3.048" x2="-2.413" y2="2.794" width="0.254" layer="94"/>
<wire x1="-2.413" y1="2.794" x2="-2.159" y2="2.54" width="0.254" layer="94"/>
<wire x1="-2.159" y1="2.54" x2="-1.651" y2="2.54" width="0.254" layer="94"/>
<wire x1="-1.651" y1="2.54" x2="-1.397" y2="2.794" width="0.254" layer="94"/>
<wire x1="-1.397" y1="2.794" x2="-2.413" y2="2.794" width="0.254" layer="94"/>
<wire x1="-1.397" y1="3.048" x2="-1.397" y2="2.794" width="0.254" layer="94"/>
<wire x1="-1.397" y1="2.794" x2="-1.143" y2="2.794" width="0.254" layer="94"/>
<wire x1="-1.651" y1="2.286" x2="-2.159" y2="2.286" width="0.254" layer="94"/>
<wire x1="-2.921" y1="2.032" x2="-0.889" y2="2.032" width="0.254" layer="94"/>
<wire x1="0" y1="3.429" x2="0.762" y2="4.191" width="0.254" layer="94"/>
<wire x1="0.762" y1="4.191" x2="0.254" y2="4.191" width="0.254" layer="94"/>
<wire x1="0.762" y1="4.191" x2="0.762" y2="3.683" width="0.254" layer="94"/>
<wire x1="-1.016" y1="3.429" x2="-0.254" y2="4.191" width="0.254" layer="94"/>
<wire x1="-0.254" y1="4.191" x2="-0.762" y2="4.191" width="0.254" layer="94"/>
<wire x1="-0.254" y1="4.191" x2="-0.254" y2="3.683" width="0.254" layer="94"/>
<text x="-1.27" y="8.382" size="1.778" layer="94">&gt;NAME</text>
<text x="-5.08" y="-5.08" size="1.778" layer="94">&gt;VALUE</text>
<pin name="C" x="15.24" y="5.08" length="middle" rot="R180"/>
<pin name="E" x="15.24" y="0" length="middle" rot="R180"/>
<pin name="K" x="-12.7" y="0" length="middle"/>
<pin name="A" x="-12.7" y="5.08" length="middle"/>
<wire x1="5.08" y1="0" x2="4.445" y2="1.27" width="0.254" layer="94"/>
<wire x1="5.08" y1="0" x2="3.81" y2="0.635" width="0.254" layer="94"/>
</symbol>
</symbols>
<devicesets>
<deviceset name="NTR2101P">
<gates>
<gate name="G$1" symbol="NTR2101P" x="5.08" y="0"/>
</gates>
<devices>
<device name="" package="SOT23">
<connects>
<connect gate="G$1" pin="D" pad="3"/>
<connect gate="G$1" pin="G" pad="1"/>
<connect gate="G$1" pin="S" pad="2"/>
</connects>
<technologies>
<technology name=""/>
</technologies>
</device>
</devices>
</deviceset>
<deviceset name="SHORTKEY">
<gates>
<gate name="G$1" symbol="SHORTKEY" x="0" y="-2.54"/>
</gates>
<devices>
<device name="" package="SMT0603">
<connects>
<connect gate="G$1" pin="A" pad="A"/>
<connect gate="G$1" pin="C" pad="C"/>
</connects>
<technologies>
<technology name=""/>
</technologies>
</device>
</devices>
</deviceset>
<deviceset name="SX1276_LORA_MODULE">
<gates>
<gate name="G$1" symbol="SX1276_RORA_MODULE" x="5.08" y="-5.08"/>
</gates>
<devices>
<device name="" package="SX1276_LORA_MODULE">
<connects>
<connect gate="G$1" pin="3.3V" pad="13"/>
<connect gate="G$1" pin="CS" pad="2"/>
<connect gate="G$1" pin="DIO0" pad="5"/>
<connect gate="G$1" pin="DIO1" pad="6"/>
<connect gate="G$1" pin="DIO2" pad="7"/>
<connect gate="G$1" pin="DIO3" pad="3"/>
<connect gate="G$1" pin="GND" pad="1"/>
<connect gate="G$1" pin="MISO" pad="11"/>
<connect gate="G$1" pin="MOSI" pad="10"/>
<connect gate="G$1" pin="NC1" pad="14"/>
<connect gate="G$1" pin="NC2" pad="9"/>
<connect gate="G$1" pin="RST" pad="4"/>
<connect gate="G$1" pin="SCK" pad="12"/>
<connect gate="G$1" pin="VS" pad="8"/>
</connects>
<technologies>
<technology name=""/>
</technologies>
</device>
</devices>
</deviceset>
<deviceset name="1MM_PIN_HEADER">
<gates>
<gate name="G$1" symbol="1MM_PIN_HEADER" x="-20.32" y="15.24"/>
</gates>
<devices>
<device name="" package="1MM_PIN_HEADER">
<connects>
<connect gate="G$1" pin="1" pad="1"/>
<connect gate="G$1" pin="2" pad="2"/>
<connect gate="G$1" pin="3" pad="3"/>
</connects>
<technologies>
<technology name=""/>
</technologies>
</device>
</devices>
</deviceset>
<deviceset name="ETA1096" prefix="U">
<gates>
<gate name="G$1" symbol="ETA1096" x="0" y="0"/>
</gates>
<devices>
<device name="" package="ESOP-8">
<connects>
<connect gate="G$1" pin="EN" pad="2"/>
<connect gate="G$1" pin="FB" pad="5"/>
<connect gate="G$1" pin="GND" pad="0"/>
<connect gate="G$1" pin="GND1" pad="1"/>
<connect gate="G$1" pin="GND2" pad="8"/>
<connect gate="G$1" pin="IN" pad="4"/>
<connect gate="G$1" pin="ISET" pad="6"/>
<connect gate="G$1" pin="OUT" pad="7"/>
<connect gate="G$1" pin="SW" pad="3"/>
</connects>
<technologies>
<technology name=""/>
</technologies>
</device>
</devices>
</deviceset>
<deviceset name="ETA9741" prefix="U">
<gates>
<gate name="G$1" symbol="ETA9741" x="0" y="0"/>
</gates>
<devices>
<device name="" package="ESOP-8">
<connects>
<connect gate="G$1" pin="BAT" pad="6"/>
<connect gate="G$1" pin="BTN" pad="5"/>
<connect gate="G$1" pin="EX_GND" pad="0"/>
<connect gate="G$1" pin="GND" pad="8"/>
<connect gate="G$1" pin="IN/OUT" pad="7"/>
<connect gate="G$1" pin="LED12" pad="2"/>
<connect gate="G$1" pin="LED34" pad="3"/>
<connect gate="G$1" pin="LEDC" pad="4"/>
<connect gate="G$1" pin="SW" pad="1"/>
</connects>
<technologies>
<technology name=""/>
</technologies>
</device>
</devices>
</deviceset>
<deviceset name="SS34-E3/57T" prefix="D">
<gates>
<gate name="G$1" symbol="SS34-E3/57T" x="0" y="0"/>
</gates>
<devices>
<device name="" package="DO-214AC_SMA">
<connects>
<connect gate="G$1" pin="A" pad="1"/>
<connect gate="G$1" pin="C" pad="2"/>
</connects>
<technologies>
<technology name=""/>
</technologies>
</device>
</devices>
</deviceset>
<deviceset name="2.2UH/15V" prefix="U">
<gates>
<gate name="G$1" symbol="2.2UH/15A" x="0" y="0"/>
</gates>
<devices>
<device name="" package="WHC0603">
<connects>
<connect gate="G$1" pin="1" pad="1"/>
<connect gate="G$1" pin="2" pad="2"/>
</connects>
<technologies>
<technology name=""/>
</technologies>
</device>
</devices>
</deviceset>
<deviceset name="AO3401A" prefix="Q">
<gates>
<gate name="G$1" symbol="P_CHANEL_MOSFET" x="-2.54" y="0"/>
</gates>
<devices>
<device name="" package="SOT-23-3">
<connects>
<connect gate="G$1" pin="D" pad="3"/>
<connect gate="G$1" pin="G" pad="1"/>
<connect gate="G$1" pin="S" pad="2"/>
</connects>
<technologies>
<technology name=""/>
</technologies>
</device>
</devices>
</deviceset>
<deviceset name="MMBT3904LT3GOSCT-ND" prefix="Q">
<gates>
<gate name="G$1" symbol="MMBT394L" x="-2.54" y="0"/>
</gates>
<devices>
<device name="" package="SOT23">
<connects>
<connect gate="G$1" pin="B" pad="1"/>
<connect gate="G$1" pin="C" pad="3"/>
<connect gate="G$1" pin="E" pad="2"/>
</connects>
<technologies>
<technology name=""/>
</technologies>
</device>
</devices>
</deviceset>
<deviceset name="FB" prefix="FB">
<gates>
<gate name="G$1" symbol="FB" x="-2.54" y="-2.54"/>
</gates>
<devices>
<device name="" package="0805">
<connects>
<connect gate="G$1" pin="1" pad="1"/>
<connect gate="G$1" pin="2" pad="2"/>
</connects>
<technologies>
<technology name=""/>
</technologies>
</device>
</devices>
</deviceset>
<deviceset name="XC6221A332MR-G" prefix="U">
<gates>
<gate name="G$1" symbol="XC6221A332MR-G" x="-7.62" y="7.62"/>
</gates>
<devices>
<device name="" package="SOT-25">
<connects>
<connect gate="G$1" pin="EN" pad="P$3"/>
<connect gate="G$1" pin="GND" pad="P$2"/>
<connect gate="G$1" pin="NC" pad="P$4"/>
<connect gate="G$1" pin="VIN" pad="P$1"/>
<connect gate="G$1" pin="VOUT" pad="P$5"/>
</connects>
<technologies>
<technology name=""/>
</technologies>
</device>
</devices>
</deviceset>
<deviceset name="4PIN_SMD_SWITCH" prefix="SW">
<gates>
<gate name="G$1" symbol="4PIN_SMD_SWITCH" x="0" y="0"/>
</gates>
<devices>
<device name="" package="4PIN_SMD_SWITCH">
<connects>
<connect gate="G$1" pin="P" pad="1"/>
<connect gate="G$1" pin="P1" pad="2"/>
<connect gate="G$1" pin="S" pad="4"/>
<connect gate="G$1" pin="S1" pad="3"/>
</connects>
<technologies>
<technology name=""/>
</technologies>
</device>
</devices>
</deviceset>
<deviceset name="3X4X2_2PIN_SWITCH" prefix="SW">
<gates>
<gate name="G$1" symbol="3X4X2_2PIN_SWITCH" x="0" y="-2.54"/>
</gates>
<devices>
<device name="" package="33X4X2_2PIN_SWITCH">
<connects>
<connect gate="G$1" pin="P" pad="1"/>
<connect gate="G$1" pin="S" pad="2"/>
</connects>
<technologies>
<technology name=""/>
</technologies>
</device>
</devices>
</deviceset>
<deviceset name="CAP_POLPTH1(CAP_POL)" prefix="C">
<gates>
<gate name="G$1" symbol="CAP_POLPTH1" x="0" y="0"/>
</gates>
<devices>
<device name="" package="CPOL-RADIAL-100UF-25V">
<connects>
<connect gate="G$1" pin="+" pad="+"/>
<connect gate="G$1" pin="-" pad="-"/>
</connects>
<technologies>
<technology name=""/>
</technologies>
</device>
</devices>
</deviceset>
<deviceset name="HSMF-C118" prefix="D">
<gates>
<gate name="G$1" symbol="HSMF-C118" x="0" y="5.08"/>
</gates>
<devices>
<device name="" package="HSMF-C118">
<connects>
<connect gate="G$1" pin="BULE" pad="P$4"/>
<connect gate="G$1" pin="GREEN" pad="P$3"/>
<connect gate="G$1" pin="RED" pad="P$2"/>
<connect gate="G$1" pin="VCC" pad="P$1"/>
</connects>
<technologies>
<technology name=""/>
</technologies>
</device>
</devices>
</deviceset>
<deviceset name="1N4007(M7)" prefix="D">
<gates>
<gate name="G$1" symbol="DIODE" x="0" y="0"/>
</gates>
<devices>
<device name="" package="DO-214AC_SMA">
<connects>
<connect gate="G$1" pin="A" pad="1"/>
<connect gate="G$1" pin="C" pad="2"/>
</connects>
<technologies>
<technology name=""/>
</technologies>
</device>
</devices>
</deviceset>
<deviceset name="2X20_2.54_MALE_HEADER(HOUSING)" prefix="J">
<gates>
<gate name="G$1" symbol="2X20_HEADER" x="0" y="0"/>
</gates>
<devices>
<device name="" package="2X20_2.54_MALE_HEADER(HOUSING)">
<connects>
<connect gate="G$1" pin="1" pad="1"/>
<connect gate="G$1" pin="10" pad="10"/>
<connect gate="G$1" pin="11" pad="11"/>
<connect gate="G$1" pin="12" pad="12"/>
<connect gate="G$1" pin="13" pad="13"/>
<connect gate="G$1" pin="14" pad="14"/>
<connect gate="G$1" pin="15" pad="15"/>
<connect gate="G$1" pin="16" pad="16"/>
<connect gate="G$1" pin="17" pad="17"/>
<connect gate="G$1" pin="18" pad="18"/>
<connect gate="G$1" pin="19" pad="19"/>
<connect gate="G$1" pin="2" pad="2"/>
<connect gate="G$1" pin="20" pad="20"/>
<connect gate="G$1" pin="21" pad="21"/>
<connect gate="G$1" pin="22" pad="22"/>
<connect gate="G$1" pin="23" pad="23"/>
<connect gate="G$1" pin="24" pad="24"/>
<connect gate="G$1" pin="25" pad="25"/>
<connect gate="G$1" pin="26" pad="26"/>
<connect gate="G$1" pin="27" pad="27"/>
<connect gate="G$1" pin="28" pad="28"/>
<connect gate="G$1" pin="29" pad="29"/>
<connect gate="G$1" pin="3" pad="3"/>
<connect gate="G$1" pin="30" pad="30"/>
<connect gate="G$1" pin="31" pad="31"/>
<connect gate="G$1" pin="32" pad="32"/>
<connect gate="G$1" pin="33" pad="33"/>
<connect gate="G$1" pin="34" pad="34"/>
<connect gate="G$1" pin="35" pad="35"/>
<connect gate="G$1" pin="36" pad="36"/>
<connect gate="G$1" pin="37" pad="37"/>
<connect gate="G$1" pin="38" pad="38"/>
<connect gate="G$1" pin="39" pad="39"/>
<connect gate="G$1" pin="4" pad="4"/>
<connect gate="G$1" pin="40" pad="40"/>
<connect gate="G$1" pin="5" pad="5"/>
<connect gate="G$1" pin="6" pad="6"/>
<connect gate="G$1" pin="7" pad="7"/>
<connect gate="G$1" pin="8" pad="8"/>
<connect gate="G$1" pin="9" pad="9"/>
</connects>
<technologies>
<technology name=""/>
</technologies>
</device>
</devices>
</deviceset>
<deviceset name="1X10_TERMINAL_BLOCK" prefix="JS">
<gates>
<gate name="G$1" symbol="1X10_TERMINAL" x="0" y="0"/>
</gates>
<devices>
<device name="" package="10POS_2.54MM_TERMINAL-BLOCK">
<connects>
<connect gate="G$1" pin="P1" pad="1"/>
<connect gate="G$1" pin="P10" pad="10"/>
<connect gate="G$1" pin="P2" pad="2"/>
<connect gate="G$1" pin="P3" pad="3"/>
<connect gate="G$1" pin="P4" pad="4"/>
<connect gate="G$1" pin="P5" pad="5"/>
<connect gate="G$1" pin="P6" pad="6"/>
<connect gate="G$1" pin="P7" pad="7"/>
<connect gate="G$1" pin="P8" pad="8"/>
<connect gate="G$1" pin="P9" pad="9"/>
</connects>
<technologies>
<technology name=""/>
</technologies>
</device>
</devices>
</deviceset>
<deviceset name="1X5_TERMINAL_BLOCL" prefix="JS">
<gates>
<gate name="G$1" symbol="1X5_TERMINAL" x="2.54" y="-12.7"/>
</gates>
<devices>
<device name="" package="5PCS_2.54MM_TERMINAL-BLOCK">
<connects>
<connect gate="G$1" pin="P1" pad="1"/>
<connect gate="G$1" pin="P2" pad="2"/>
<connect gate="G$1" pin="P3" pad="3"/>
<connect gate="G$1" pin="P4" pad="4"/>
<connect gate="G$1" pin="P5" pad="5"/>
</connects>
<technologies>
<technology name=""/>
</technologies>
</device>
</devices>
</deviceset>
<deviceset name="1X2_TERMINAL_BLOCK" prefix="JS">
<gates>
<gate name="G$1" symbol="1X2_TERMINAL" x="0" y="-5.08"/>
</gates>
<devices>
<device name="" package="2PCS_2.54MM_TERMINA-BLOCK">
<connects>
<connect gate="G$1" pin="P1" pad="1"/>
<connect gate="G$1" pin="P2" pad="2"/>
</connects>
<technologies>
<technology name=""/>
</technologies>
</device>
</devices>
</deviceset>
<deviceset name="1N4002(M2)" prefix="D">
<gates>
<gate name="G$1" symbol="DIODE" x="0" y="0"/>
</gates>
<devices>
<device name="" package="DO-214AC_SMA">
<connects>
<connect gate="G$1" pin="A" pad="1"/>
<connect gate="G$1" pin="C" pad="2"/>
</connects>
<technologies>
<technology name=""/>
</technologies>
</device>
</devices>
</deviceset>
<deviceset name="1X3_TERMINAL_BLOCK" prefix="JS">
<gates>
<gate name="G$1" symbol="1X3_TERMINAL" x="0" y="0"/>
</gates>
<devices>
<device name="" package="3PCS_2.54MM_TERMINAL-BLOCK">
<connects>
<connect gate="G$1" pin="P1" pad="1"/>
<connect gate="G$1" pin="P2" pad="2"/>
<connect gate="G$1" pin="P3" pad="3"/>
</connects>
<technologies>
<technology name=""/>
</technologies>
</device>
</devices>
</deviceset>
<deviceset name="5V_SONGLE_RELAY" prefix="U">
<gates>
<gate name="G$1" symbol="5V_SONGLE_RELAY" x="-7.62" y="5.08"/>
</gates>
<devices>
<device name="" package="5V_SONGLE_RELAY">
<connects>
<connect gate="G$1" pin="COM" pad="1"/>
<connect gate="G$1" pin="NC" pad="4"/>
<connect gate="G$1" pin="NO" pad="5"/>
<connect gate="G$1" pin="T_N" pad="2"/>
<connect gate="G$1" pin="T_P" pad="3"/>
</connects>
<technologies>
<technology name=""/>
</technologies>
</device>
</devices>
</deviceset>
<deviceset name="EL817S" prefix="U">
<gates>
<gate name="G$1" symbol="EL817S" x="0" y="0"/>
</gates>
<devices>
<device name="" package="EL817S">
<connects>
<connect gate="G$1" pin="A" pad="1"/>
<connect gate="G$1" pin="C" pad="4"/>
<connect gate="G$1" pin="E" pad="3"/>
<connect gate="G$1" pin="K" pad="2"/>
</connects>
<technologies>
<technology name=""/>
</technologies>
</device>
</devices>
</deviceset>
<deviceset name="KF8500-2P_TERMINAL_BLOCK" prefix="JS">
<gates>
<gate name="G$1" symbol="1X2_TERMINAL" x="0" y="-2.54"/>
</gates>
<devices>
<device name="" package="KF8500_2P_TERMINA-BLOCK">
<connects>
<connect gate="G$1" pin="P1" pad="1"/>
<connect gate="G$1" pin="P2" pad="2"/>
</connects>
<technologies>
<technology name=""/>
</technologies>
</device>
</devices>
</deviceset>
</devicesets>
</library>
</drawing>
</eagle>
